"Band1", "Band2", "Band3", "Band4", "Band5", "Band6", "Band7", "Band8", "Band9", "Band10", "Band11", "Band12", "Band13", "Band14", "Band15", "Band16", "Band17", "Band18", "Band19", "Band20", "Band21", "Band22", "Band23", "Band24", "Band25", "Band26", "Band27", "Band28", "Band29", "Band30", "Band31", "Band32", "Band33", "Band34", "Band35", "Band36", "Band37", "Band38", "Band39", "Band40", "Band41", "Band42", "Band43", "Band44", "Band45", "Band46", "Band47", "Band48", "Band49", "Band50", "Band51", "Band52", "Band53", "Band54", "Band55", "Band56", "Band57", "Band58", "Band59", "Band60", "Class"
"0.01", "0.017", "0.062", "0.02", "0.02", "0.037", "0.11", "0.128", "0.06", "0.126", "0.088", "0.199", "0.018", "0.226", "0.173", "0.213", "0.069", "0.228", "0.406", "0.397", "0.274", "0.369", "0.556", "0.485", "0.314", "0.533", "0.526", "0.252", "0.209", "0.356", "0.626", "0.734", "0.612", "0.35", "0.395", "0.301", "0.541", "0.881", "0.986", "0.917", "0.612", "0.501", "0.321", "0.32", "0.43", "0.365", "0.266", "0.158", "0.068", "0.029", "0.024", "0.012", "0.0040", "0.015", "0.0080", "0.0070", "0.0050", "0.0040", "0.0040", "0.012", "R"
"0.032", "0.096", "0.132", "0.141", "0.167", "0.171", "0.073", "0.14", "0.208", "0.351", "0.179", "0.066", "0.051", "0.375", "0.542", "0.544", "0.515", "0.426", "0.202", "0.423", "0.772", "0.974", "0.939", "0.556", "0.527", "0.683", "0.571", "0.543", "0.218", "0.215", "0.581", "0.632", "0.296", "0.187", "0.297", "0.516", "0.615", "0.428", "0.548", "0.613", "0.502", "0.238", "0.196", "0.175", "0.13", "0.06", "0.112", "0.105", "0.051", "0.016", "0.02", "0.02", "0.025", "0.013", "0.0070", "0.014", "0.0090", "0.014", "0.0040", "0.01", "R"
"0.052", "0.055", "0.084", "0.032", "0.116", "0.092", "0.103", "0.061", "0.146", "0.284", "0.28", "0.309", "0.266", "0.38", "0.563", "0.438", "0.262", "0.12", "0.668", "0.94", "0.783", "0.535", "0.681", "0.917", "0.761", "0.822", "0.887", "0.609", "0.297", "0.11", "0.132", "0.062", "0.099", "0.401", "0.367", "0.105", "0.192", "0.393", "0.429", "0.255", "0.115", "0.22", "0.188", "0.144", "0.215", "0.236", "0.112", "0.025", "0.028", "0.018", "0.0050", "0.0080", "0.012", "0.0040", "0.012", "0.01", "0.0080", "0.0050", "0.0050", "0.0050", "R"
"0.016", "0.017", "0.035", "0.0070", "0.019", "0.067", "0.106", "0.07", "0.096", "0.025", "0.08", "0.106", "0.127", "0.089", "0.02", "0.113", "0.283", "0.323", "0.324", "0.433", "0.607", "0.765", "0.92", "0.972", "0.921", "0.754", "0.829", "0.891", "0.731", "0.69", "0.583", "0.494", "0.31", "0.031", "0.024", "0.111", "0.159", "0.137", "0.07", "0.045", "0.062", "0.142", "0.16", "0.138", "0.037", "0.069", "0.087", "0.051", "0.0090", "0.02", "0.012", "0.0090", "0.022", "0.018", "0.0080", "0.0070", "0.0030", "0.0040", "0.0060", "0.0040", "R"
"0.0040", "0.0060", "0.015", "0.034", "0.031", "0.028", "0.04", "0.027", "0.032", "0.045", "0.049", "0.1", "0.142", "0.119", "0.063", "0.091", "0.118", "0.143", "0.122", "0.11", "0.185", "0.372", "0.438", "0.571", "0.665", "0.748", "0.765", "0.856", "0.972", "0.922", "0.75", "0.721", "0.776", "0.606", "0.502", "0.45", "0.395", "0.428", "0.443", "0.375", "0.197", "0.051", "0.079", "0.127", "0.153", "0.069", "0.04", "0.053", "0.023", "0.0070", "0.0060", "0.0060", "0.012", "0.0050", "0.0060", "0.0090", "0.0040", "0.0", "0.0050", "0.0040", "R"
"0.012", "0.043", "0.06", "0.045", "0.06", "0.036", "0.053", "0.034", "0.105", "0.212", "0.164", "0.19", "0.303", "0.202", "0.059", "0.239", "0.366", "0.381", "0.593", "0.63", "0.58", "0.457", "0.445", "0.369", "0.645", "0.894", "0.898", "0.498", "0.333", "0.235", "0.155", "0.367", "0.434", "0.308", "0.302", "0.411", "0.55", "0.413", "0.55", "0.502", "0.313", "0.28", "0.235", "0.23", "0.116", "0.072", "0.062", "0.032", "0.045", "0.017", "0.0080", "0.0080", "0.0060", "0.017", "0.019", "0.0050", "0.011", "0.02", "0.015", "0.0060", "R"
"0.019", "0.061", "0.038", "0.077", "0.139", "0.081", "0.057", "0.022", "0.104", "0.119", "0.124", "0.16", "0.352", "0.448", "0.377", "0.576", "0.643", "0.679", "0.716", "0.547", "0.54", "0.636", "0.785", "0.776", "0.578", "0.486", "0.418", "0.246", "0.072", "0.061", "0.182", "0.449", "0.598", "0.378", "0.25", "0.577", "0.885", "0.841", "0.357", "0.313", "0.61", "0.638", "0.271", "0.142", "0.126", "0.129", "0.079", "0.083", "0.052", "0.022", "0.036", "0.033", "0.013", "0.012", "0.011", "0.0020", "0.0040", "0.0040", "0.011", "0.0080", "R"
"0.031", "0.049", "0.069", "0.083", "0.0080", "0.02", "0.098", "0.102", "0.202", "0.077", "0.177", "0.256", "0.281", "0.272", "0.323", "0.346", "0.54", "0.791", "0.906", "0.87", "0.767", "0.296", "0.415", "0.604", "0.318", "0.348", "0.616", "0.805", "0.629", "0.5", "0.583", "0.666", "0.412", "0.126", "0.249", "0.468", "0.538", "0.315", "0.214", "0.185", "0.168", "0.233", "0.102", "0.071", "0.062", "0.078", "0.076", "0.084", "0.059", "0.0070", "0.0090", "0.0090", "0.0030", "0.013", "0.019", "0.01", "0.023", "0.018", "0.0050", "0.0040", "R"
"0.021", "0.032", "0.042", "0.029", "0.012", "0.044", "0.13", "0.139", "0.07", "0.057", "0.087", "0.194", "0.148", "0.187", "0.199", "0.328", "0.686", "0.581", "0.25", "0.173", "0.336", "0.559", "0.659", "0.701", "0.81", "0.89", "0.874", "0.789", "0.872", "0.938", "0.892", "0.751", "0.683", "0.761", "0.902", "1.0", "0.912", "0.739", "0.592", "0.406", "0.302", "0.233", "0.293", "0.23", "0.239", "0.191", "0.11", "0.03", "0.017", "0.038", "0.0050", "0.0090", "0.0040", "0.015", "0.011", "0.0020", "0.01", "0.0050", "0.0070", "0.0080", "R"
"0.026", "0.045", "0.039", "0.024", "0.132", "0.132", "0.161", "0.214", "0.085", "0.056", "0.089", "0.086", "0.153", "0.152", "0.185", "0.287", "0.201", "0.275", "0.502", "0.217", "0.498", "0.526", "0.365", "0.577", "0.516", "0.572", "0.401", "0.365", "0.668", "0.866", "0.805", "0.408", "0.338", "0.509", "0.678", "0.731", "0.606", "0.704", "0.885", "0.898", "0.775", "0.725", "0.773", "0.776", "0.601", "0.451", "0.31", "0.186", "0.096", "0.021", "0.021", "0.01", "0.015", "0.01", "0.013", "0.02", "0.0020", "0.02", "0.026", "0.018", "R"
"0.037", "0.028", "0.023", "0.022", "0.018", "0.073", "0.084", "0.103", "0.099", "0.08", "0.156", "0.256", "0.262", "0.118", "0.06", "0.156", "0.224", "0.359", "0.179", "0.326", "0.608", "0.699", "0.839", "0.855", "0.771", "0.622", "0.574", "0.44", "0.406", "0.441", "0.513", "0.596", "0.727", "0.654", "0.59", "0.539", "0.49", "0.408", "0.414", "0.6", "0.72", "0.663", "0.629", "0.409", "0.321", "0.252", "0.148", "0.099", "0.032", "0.027", "0.0070", "0.0010", "0.0040", "0.0020", "0.0010", "0.0070", "0.01", "0.0050", "0.0080", "0.0060", "R"
"0.013", "0.0080", "0.019", "0.014", "0.044", "0.067", "0.061", "0.013", "0.09", "0.092", "0.144", "0.148", "0.209", "0.256", "0.26", "0.198", "0.239", "0.313", "0.408", "0.453", "0.489", "0.567", "0.623", "0.674", "0.828", "0.882", "0.92", "0.896", "0.755", "0.674", "0.646", "0.501", "0.366", "0.23", "0.136", "0.212", "0.24", "0.267", "0.286", "0.206", "0.166", "0.263", "0.255", "0.17", "0.147", "0.129", "0.093", "0.072", "0.032", "0.026", "0.014", "0.0040", "0.0030", "0.0020", "0.0020", "0.0050", "0.014", "0.014", "0.0030", "0.0060", "R"
"0.0090", "0.022", "0.024", "0.044", "0.067", "0.077", "0.05", "0.091", "0.123", "0.118", "0.078", "0.11", "0.104", "0.085", "0.046", "0.13", "0.269", "0.295", "0.367", "0.495", "0.628", "0.816", "0.924", "0.871", "0.805", "0.876", "1.0", "0.986", "0.943", "0.811", "0.699", "0.681", "0.659", "0.695", "0.729", "0.668", "0.592", "0.49", "0.344", "0.237", "0.172", "0.101", "0.077", "0.084", "0.026", "0.033", "0.02", "0.031", "0.01", "0.01", "0.0050", "0.0070", "0.0050", "0.0020", "0.0020", "0.0030", "0.0060", "0.0050", "0.0020", "0.0030", "R"
"0.026", "0.044", "0.014", "0.0080", "0.03", "0.044", "0.034", "0.078", "0.084", "0.078", "0.033", "0.206", "0.191", "0.106", "0.146", "0.223", "0.207", "0.11", "0.108", "0.116", "0.222", "0.069", "0.206", "0.238", "0.09", "0.228", "0.587", "0.846", "0.847", "0.768", "0.806", "0.626", "0.654", "0.875", "0.988", "0.935", "0.696", "0.573", "0.587", "0.666", "0.565", "0.525", "0.368", "0.2", "0.151", "0.051", "0.093", "0.098", "0.052", "0.019", "0.01", "0.0040", "0.019", "0.016", "0.0070", "0.01", "0.0070", "0.0080", "0.0090", "0.01", "R"
"0.0060", "0.012", "0.0070", "0.011", "0.022", "0.028", "0.053", "0.058", "0.105", "0.111", "0.094", "0.083", "0.092", "0.091", "0.149", "0.167", "0.127", "0.137", "0.11", "0.129", "0.215", "0.289", "0.424", "0.617", "0.817", "0.962", "0.828", "0.582", "0.467", "0.354", "0.273", "0.141", "0.186", "0.218", "0.236", "0.172", "0.059", "0.062", "0.185", "0.245", "0.298", "0.304", "0.228", "0.148", "0.11", "0.118", "0.061", "0.033", "0.028", "0.01", "0.0020", "0.0070", "0.0020", "0.0030", "0.0050", "0.0040", "0.0030", "0.0040", "0.0010", "0.0040", "R"
"0.011", "0.0090", "0.012", "0.038", "0.068", "0.086", "0.1", "0.066", "0.094", "0.104", "0.097", "0.05", "0.155", "0.34", "0.48", "0.657", "0.774", "0.783", "0.815", "0.813", "0.83", "0.854", "0.887", "0.889", "0.898", "0.967", "1.0", "0.913", "0.676", "0.466", "0.29", "0.296", "0.175", "0.211", "0.257", "0.228", "0.215", "0.16", "0.037", "0.012", "0.049", "0.029", "0.06", "0.043", "0.037", "0.0020", "0.033", "0.026", "0.018", "0.011", "0.012", "0.0080", "0.0020", "0.012", "0.0050", "0.0080", "0.0080", "0.0060", "0.0060", "0.0040", "R"
"0.02", "0.01", "0.032", "0.024", "0.081", "0.153", "0.115", "0.061", "0.132", "0.137", "0.084", "0.027", "0.125", "0.305", "0.558", "0.797", "0.834", "0.806", "0.862", "0.877", "0.941", "0.94", "0.941", "1.0", "0.972", "0.931", "0.935", "0.732", "0.442", "0.324", "0.416", "0.461", "0.403", "0.3", "0.246", "0.135", "0.254", "0.226", "0.16", "0.148", "0.084", "0.057", "0.086", "0.126", "0.115", "0.057", "0.043", "0.042", "0.024", "0.0010", "0.019", "0.013", "0.0080", "0.0070", "0.0040", "0.0060", "0.0050", "0.0050", "0.0070", "0.0050", "R"
"0.041", "0.042", "0.057", "0.013", "0.018", "0.102", "0.105", "0.107", "0.23", "0.226", "0.237", "0.332", "0.383", "0.484", "0.681", "0.756", "0.952", "0.983", "0.887", "0.827", "0.756", "0.822", "0.697", "0.644", "0.695", "0.801", "0.605", "0.608", "0.888", "0.856", "0.556", "0.29", "0.364", "0.479", "0.291", "0.09", "0.204", "0.171", "0.041", "0.129", "0.158", "0.219", "0.17", "0.097", "0.222", "0.273", "0.187", "0.106", "0.066", "0.04", "0.011", "0.0030", "0.0040", "0.01", "0.012", "0.0090", "0.0060", "0.0060", "0.0030", "0.0080", "R"
"0.019", "0.037", "0.095", "0.082", "0.025", "0.049", "0.142", "0.197", "0.187", "0.181", "0.214", "0.152", "0.198", "0.484", "0.73", "0.781", "0.791", "0.612", "0.42", "0.281", "0.515", "0.757", "0.86", "1.0", "0.846", "0.68", "0.697", "0.584", "0.477", "0.52", "0.424", "0.159", "0.167", "0.059", "0.397", "0.715", "0.732", "0.351", "0.059", "0.269", "0.42", "0.387", "0.244", "0.2", "0.231", "0.189", "0.196", "0.17", "0.137", "0.04", "0.014", "0.0090", "0.0030", "0.011", "0.0030", "0.0060", "0.0090", "0.0060", "0.0070", "0.0020", "R"
"0.131", "0.234", "0.306", "0.426", "0.401", "0.179", "0.185", "0.0060", "0.193", "0.223", "0.291", "0.226", "0.314", "0.33", "0.366", "0.396", "0.439", "0.467", "0.526", "0.374", "0.224", "0.197", "0.434", "0.653", "0.507", "0.28", "0.416", "0.595", "0.524", "0.418", "0.371", "0.238", "0.086", "0.144", "0.29", "0.458", "0.372", "0.337", "0.38", "0.418", "0.36", "0.271", "0.165", "0.195", "0.281", "0.225", "0.192", "0.15", "0.066", "0.019", "0.016", "0.036", "0.021", "0.015", "0.018", "0.0010", "0.011", "0.013", "0.018", "0.023", "M"
"0.02", "0.042", "0.055", "0.078", "0.062", "0.087", "0.12", "0.271", "0.121", "0.028", "0.225", "0.262", "0.177", "0.371", "0.453", "0.555", "0.462", "0.38", "0.345", "0.266", "0.24", "0.113", "0.256", "0.517", "0.378", "0.408", "0.535", "0.512", "0.454", "0.426", "0.387", "0.394", "0.466", "0.397", "0.219", "0.182", "0.102", "0.211", "0.325", "0.37", "0.291", "0.301", "0.256", "0.193", "0.206", "0.175", "0.084", "0.104", "0.064", "0.015", "0.0080", "0.019", "0.018", "0.016", "0.029", "0.0090", "0.024", "0.022", "0.019", "0.01", "M"
"0.063", "0.106", "0.153", "0.123", "0.144", "0.119", "0.088", "0.091", "0.211", "0.36", "0.547", "0.52", "0.513", "0.54", "0.656", "0.87", "0.979", "0.934", "0.792", "0.738", "0.691", "0.385", "0.067", "0.05", "0.272", "0.284", "0.223", "0.191", "0.041", "0.253", "0.198", "0.189", "0.243", "0.196", "0.267", "0.134", "0.107", "0.202", "0.179", "0.023", "0.131", "0.178", "0.155", "0.163", "0.071", "0.013", "0.08", "0.076", "0.012", "0.0060", "0.026", "0.0090", "0.026", "0.011", "0.014", "0.019", "0.023", "0.0060", "0.011", "0.013", "M"
"0.059", "0.121", "0.127", "0.15", "0.144", "0.056", "0.083", "0.067", "0.137", "0.235", "0.321", "0.426", "0.52", "0.491", "0.595", "0.722", "0.904", "0.911", "0.872", "0.769", "0.733", "0.522", "0.31", "0.317", "0.227", "0.164", "0.175", "0.184", "0.205", "0.167", "0.277", "0.31", "0.34", "0.444", "0.505", "0.281", "0.168", "0.263", "0.32", "0.193", "0.093", "0.044", "0.078", "0.072", "0.04", "0.055", "0.108", "0.114", "0.077", "0.026", "0.022", "0.033", "0.011", "0.0090", "0.016", "0.012", "0.0040", "0.01", "0.023", "0.012", "M"
"0.012", "0.018", "0.045", "0.11", "0.191", "0.092", "0.076", "0.109", "0.076", "0.101", "0.25", "0.399", "0.381", "0.475", "0.616", "0.646", "0.802", "0.921", "0.983", "0.963", "0.865", "0.832", "0.828", "0.801", "0.61", "0.485", "0.436", "0.431", "0.44", "0.383", "0.303", "0.304", "0.32", "0.229", "0.213", "0.235", "0.32", "0.446", "0.366", "0.272", "0.175", "0.178", "0.22", "0.106", "0.057", "0.031", "0.024", "0.047", "0.01", "0.0060", "0.0030", "0.016", "0.01", "0.0080", "0.027", "0.028", "0.01", "0.0050", "0.015", "0.0090", "M"
"0.0090", "0.033", "0.031", "0.038", "0.13", "0.18", "0.191", "0.169", "0.187", "0.172", "0.223", "0.311", "0.414", "0.516", "0.537", "0.511", "0.644", "0.733", "0.816", "0.886", "0.989", "1.0", "0.875", "0.863", "0.907", "0.867", "0.775", "0.66", "0.562", "0.402", "0.233", "0.116", "0.11", "0.043", "0.062", "0.196", "0.212", "0.324", "0.41", "0.294", "0.191", "0.17", "0.101", "0.151", "0.143", "0.11", "0.117", "0.097", "0.07", "0.028", "0.022", "0.015", "0.011", "0.024", "0.016", "0.0060", "0.0080", "0.0060", "0.0090", "0.0070", "M"
"0.027", "0.016", "0.034", "0.025", "0.082", "0.126", "0.132", "0.158", "0.202", "0.212", "0.221", "0.24", "0.296", "0.406", "0.51", "0.551", "0.661", "0.68", "0.652", "0.679", "0.781", "0.837", "0.897", "0.986", "1.0", "0.94", "0.892", "0.81", "0.683", "0.557", "0.43", "0.334", "0.204", "0.08", "0.081", "0.152", "0.263", "0.246", "0.198", "0.241", "0.241", "0.19", "0.208", "0.177", "0.112", "0.078", "0.134", "0.096", "0.06", "0.033", "0.02", "0.019", "0.02", "0.0080", "0.0040", "0.0090", "0.014", "0.0090", "0.01", "0.0090", "M"
"0.072", "0.085", "0.059", "0.022", "0.086", "0.18", "0.192", "0.19", "0.296", "0.419", "0.487", "0.525", "0.596", "0.686", "0.857", "0.972", "0.869", "0.871", "0.895", "0.992", "0.898", "0.816", "0.837", "0.754", "0.589", "0.549", "0.564", "0.541", "0.478", "0.444", "0.37", "0.257", "0.148", "0.174", "0.123", "0.159", "0.18", "0.144", "0.167", "0.263", "0.223", "0.124", "0.087", "0.209", "0.15", "0.068", "0.09", "0.093", "0.066", "0.0090", "0.022", "0.015", "0.012", "0.01", "0.02", "0.0040", "0.0070", "0.01", "0.0080", "0.012", "M"
"0.079", "0.071", "0.035", "0.166", "0.133", "0.023", "0.077", "0.268", "0.566", "0.661", "0.5", "0.258", "0.165", "0.435", "0.452", "0.458", "0.337", "0.4", "0.532", "0.901", "0.994", "0.369", "0.101", "0.025", "0.232", "0.398", "0.226", "0.525", "0.69", "0.832", "0.433", "0.374", "0.576", "0.804", "0.796", "0.717", "0.706", "0.815", "0.76", "0.603", "0.455", "0.473", "0.448", "0.372", "0.469", "0.384", "0.077", "0.147", "0.078", "0.047", "0.019", "0.03", "0.039", "0.029", "0.018", "0.025", "0.014", "0.0070", "0.0020", "0.01", "M"
"0.041", "0.114", "0.052", "0.023", "0.065", "0.112", "0.179", "0.241", "0.268", "0.206", "0.155", "0.267", "0.314", "0.29", "0.353", "0.508", "0.464", "0.186", "0.447", "0.408", "0.54", "0.479", "0.433", "0.611", "0.509", "0.461", "0.724", "0.899", "0.883", "0.92", "0.8", "0.603", "0.212", "0.287", "0.403", "0.28", "0.309", "0.355", "0.254", "0.143", "0.587", "0.643", "0.583", "0.429", "0.489", "0.578", "0.432", "0.264", "0.179", "0.077", "0.08", "0.038", "0.014", "0.027", "0.013", "0.017", "0.01", "0.022", "0.01", "0.0080", "M"
"0.053", "0.056", "0.122", "0.121", "0.025", "0.102", "0.054", "0.044", "0.229", "0.163", "0.254", "0.281", "0.301", "0.336", "0.302", "0.228", "0.291", "0.132", "0.115", "0.34", "0.556", "0.638", "0.655", "0.738", "0.653", "0.542", "0.688", "0.732", "0.773", "0.823", "0.879", "0.911", "0.67", "0.609", "0.75", "0.478", "0.167", "0.375", "0.378", "0.211", "0.589", "0.563", "0.258", "0.524", "0.615", "0.512", "0.338", "0.15", "0.055", "0.027", "0.038", "0.034", "0.015", "0.034", "0.038", "0.017", "0.013", "0.01", "0.036", "0.021", "M"
"0.065", "0.065", "0.074", "0.113", "0.248", "0.126", "0.18", "0.099", "0.246", "0.342", "0.213", "0.138", "0.403", "0.568", "0.24", "0.433", "0.595", "0.577", "0.818", "0.884", "0.525", "0.637", "0.838", "0.67", "0.776", "0.875", "0.83", "0.69", "0.337", "0.64", "0.714", "0.82", "0.666", "0.525", "0.296", "0.07", "0.097", "0.394", "0.603", "0.352", "0.392", "0.481", "0.46", "0.416", "0.544", "0.565", "0.32", "0.248", "0.13", "0.082", "0.024", "0.021", "0.036", "0.024", "0.045", "0.039", "0.036", "0.044", "0.024", "0.01", "M"
"0.071", "0.09", "0.128", "0.15", "0.128", "0.116", "0.128", "0.168", "0.183", "0.213", "0.289", "0.398", "0.458", "0.582", "0.503", "0.193", "0.258", "0.318", "0.274", "0.619", "0.896", "0.744", "0.519", "0.281", "0.177", "0.661", "0.758", "0.512", "0.47", "0.548", "0.435", "0.128", "0.085", "0.093", "0.031", "0.1", "0.178", "0.159", "0.3", "0.221", "0.146", "0.29", "0.32", "0.141", "0.063", "0.073", "0.08", "0.061", "0.056", "0.029", "0.015", "0.015", "0.016", "0.0050", "0.0030", "0.0050", "0.0090", "0.01", "0.01", "0.0070", "M"
"0.023", "0.039", "0.042", "0.055", "0.099", "0.152", "0.167", "0.151", "0.172", "0.208", "0.124", "0.024", "0.177", "0.312", "0.499", "0.671", "0.766", "0.848", "0.98", "1.0", "1.0", "0.999", "0.907", "0.68", "0.51", "0.472", "0.498", "0.62", "0.717", "0.632", "0.355", "0.29", "0.432", "0.379", "0.242", "0.094", "0.035", "0.084", "0.044", "0.113", "0.204", "0.194", "0.083", "0.15", "0.168", "0.106", "0.111", "0.085", "0.06", "0.02", "0.0070", "0.01", "0.0060", "0.0030", "0.0020", "0.0060", "0.0040", "0.01", "0.0080", "0.0010", "M"
"0.02", "0.018", "0.027", "0.023", "0.072", "0.083", "0.123", "0.13", "0.208", "0.272", "0.219", "0.304", "0.296", "0.206", "0.091", "0.161", "0.18", "0.218", "0.203", "0.151", "0.052", "0.214", "0.433", "0.594", "0.693", "0.758", "0.879", "0.906", "0.853", "0.909", "0.966", "0.931", "0.777", "0.664", "0.66", "0.688", "0.694", "0.593", "0.577", "0.622", "0.584", "0.453", "0.491", "0.576", "0.501", "0.404", "0.312", "0.223", "0.108", "0.041", "0.025", "0.013", "0.0050", "0.01", "0.01", "0.0090", "0.0080", "0.0020", "0.0050", "0.0040", "M"
"0.026", "0.043", "0.055", "0.068", "0.078", "0.125", "0.13", "0.173", "0.279", "0.295", "0.251", "0.26", "0.225", "0.212", "0.127", "0.119", "0.179", "0.218", "0.165", "0.074", "0.062", "0.238", "0.482", "0.637", "0.753", "0.896", "0.994", "0.996", "0.933", "0.934", "0.885", "0.769", "0.686", "0.639", "0.638", "0.663", "0.598", "0.456", "0.313", "0.416", "0.432", "0.403", "0.42", "0.456", "0.396", "0.297", "0.21", "0.156", "0.088", "0.026", "0.012", "0.0090", "0.0060", "0.0020", "0.0040", "0.0080", "0.0030", "0.0060", "0.0050", "0.0050", "M"
"0.013", "0.017", "0.018", "0.036", "0.044", "0.074", "0.08", "0.046", "0.037", "0.125", "0.24", "0.232", "0.252", "0.147", "0.067", "0.11", "0.235", "0.328", "0.442", "0.517", "0.651", "0.779", "0.798", "0.779", "0.859", "0.932", "0.945", "0.864", "0.722", "0.485", "0.136", "0.295", "0.472", "0.604", "0.808", "0.987", "0.88", "0.641", "0.428", "0.27", "0.264", "0.334", "0.434", "0.454", "0.396", "0.252", "0.108", "0.037", "0.029", "0.01", "0.0050", "0.0090", "0.0050", "0.0050", "0.0020", "0.0010", "0.0040", "0.0020", "0.0030", "0.0040", "M"
"0.02", "0.016", "0.034", "0.033", "0.04", "0.044", "0.068", "0.09", "0.174", "0.257", "0.293", "0.311", "0.36", "0.3", "0.272", "0.201", "0.18", "0.223", "0.357", "0.549", "0.721", "0.832", "0.886", "0.952", "0.964", "1.0", "0.967", "0.866", "0.79", "0.634", "0.535", "0.406", "0.256", "0.289", "0.359", "0.43", "0.477", "0.452", "0.376", "0.305", "0.192", "0.118", "0.198", "0.157", "0.066", "0.129", "0.08", "0.0050", "0.023", "0.015", "0.012", "0.0050", "0.0060", "0.014", "0.011", "0.0040", "0.0060", "0.01", "0.0080", "0.0040", "M"
"0.042", "0.032", "0.071", "0.011", "0.107", "0.097", "0.096", "0.132", "0.246", "0.27", "0.341", "0.429", "0.368", "0.394", "0.296", "0.317", "0.282", "0.305", "0.241", "0.542", "0.68", "0.632", "0.582", "0.68", "0.598", "0.841", "0.991", "0.919", "0.8", "0.671", "0.563", "0.733", "0.604", "0.258", "0.035", "0.18", "0.304", "0.476", "0.576", "0.425", "0.505", "0.718", "0.616", "0.566", "0.575", "0.359", "0.253", "0.23", "0.127", "0.036", "0.037", "0.018", "0.0040", "0.0090", "0.012", "0.0080", "0.0060", "0.0020", "0.0040", "0.0020", "M"
"0.0050", "0.0020", "0.027", "0.045", "0.096", "0.083", "0.088", "0.122", "0.198", "0.228", "0.252", "0.348", "0.331", "0.261", "0.178", "0.206", "0.23", "0.354", "0.622", "0.726", "0.835", "0.827", "0.837", "0.941", "0.951", "0.98", "0.997", "1.0", "0.904", "0.641", "0.386", "0.291", "0.204", "0.165", "0.177", "0.114", "0.074", "0.094", "0.062", "0.043", "0.057", "0.107", "0.191", "0.223", "0.22", "0.226", "0.177", "0.11", "0.056", "0.014", "0.028", "0.016", "0.0060", "0.0010", "0.0030", "0.0060", "0.0020", "0.0060", "0.0020", "0.0030", "M"
"0.037", "0.042", "0.05", "0.025", "0.06", "0.025", "0.096", "0.099", "0.142", "0.185", "0.222", "0.265", "0.251", "0.229", "0.156", "0.186", "0.239", "0.334", "0.523", "0.668", "0.777", "0.793", "0.794", "0.913", "0.95", "0.984", "1.0", "0.947", "0.824", "0.625", "0.418", "0.321", "0.266", "0.22", "0.159", "0.056", "0.095", "0.17", "0.122", "0.128", "0.039", "0.133", "0.233", "0.247", "0.196", "0.198", "0.157", "0.092", "0.055", "0.019", "0.017", "0.013", "0.0030", "0.0020", "0.0060", "0.0020", "0.0020", "0.0020", "0.0030", "0.0030", "M"
"0.027", "0.038", "0.049", "0.085", "0.113", "0.11", "0.135", "0.234", "0.311", "0.4", "0.394", "0.331", "0.293", "0.176", "0.174", "0.204", "0.209", "0.268", "0.243", "0.184", "0.28", "0.617", "0.802", "0.831", "0.844", "0.849", "0.917", "1.0", "0.79", "0.537", "0.647", "0.65", "0.496", "0.218", "0.099", "0.043", "0.171", "0.198", "0.188", "0.111", "0.17", "0.058", "0.064", "0.139", "0.064", "0.058", "0.064", "0.104", "0.073", "0.028", "0.015", "0.0090", "0.0040", "0.0040", "0.0040", "0.01", "0.0050", "0.0050", "0.0060", "0.01", "M"
