"At1", "At2", "At3", "At4", "At5", "At6", "At7", "Class"
"0.213", "0.554", "0.207", "0.0", "0.0", "0.749", "0.22", "1"
"0.102", "0.518", "0.111", "0.056", "0.022", "0.506", "0.086", "1"
"0.204", "0.268", "0.132", "0.0", "0.0", "0.149", "0.098", "1"
"0.378", "0.732", "0.402", "0.278", "0.223", "0.687", "0.35", "1"
"0.098", "0.607", "0.123", "0.042", "0.016", "0.67", "0.105", "1"
"0.52", "0.768", "0.548", "0.597", "0.603", "0.752", "0.495", "0"
"0.2", "0.911", "0.28", "0.208", "0.113", "0.745", "0.207", "0"
"0.538", "0.732", "0.549", "0.056", "0.058", "0.882", "0.558", "0"
"0.142", "0.589", "0.157", "0.708", "0.325", "0.938", "0.186", "0"
"0.453", "0.946", "0.556", "0.167", "0.152", "0.834", "0.461", "0"
"0.453", "0.911", "0.541", "0.097", "0.089", "0.843", "0.464", "0"
"0.413", "0.732", "0.434", "0.0", "0.0", "0.896", "0.442", "0"
"0.516", "0.625", "0.482", "0.056", "0.056", "0.65", "0.456", "0"
"0.396", "0.911", "0.482", "0.111", "0.092", "0.754", "0.384", "0"
"0.662", "0.714", "0.654", "0.278", "0.338", "0.537", "0.533", "0"
"0.298", "0.857", "0.365", "0.083", "0.057", "0.845", "0.318", "0"
"0.502", "0.589", "0.456", "0.181", "0.178", "0.623", "0.436", "0"
"0.471", "0.839", "0.531", "0.111", "0.104", "0.845", "0.481", "0"
"0.218", "0.875", "0.29", "0.556", "0.032", "0.818", "0.237", "0"
"0.684", "0.589", "0.607", "0.0", "0.0", "0.862", "0.69", "0"
"0.271", "0.196", "0.154", "0.25", "0.162", "0.22", "0.154", "0"
"0.778", "0.732", "0.769", "0.722", "1.0", "0.503", "0.608", "0"
