"dataset","subset","instances","features","algorithm","accuracy"
"coil2000","coil2000-5-1","9822","85","SVM","0.940458015267176"
"coil2000","coil2000-5-1","9822","85","MLP","0.940458015267176"
"coil2000","coil2000-5-1","9822","85","LogR","0.940458015267176"
"coil2000","coil2000-5-1","9822","85","KNN","0.934860050890585"
"coil2000","coil2000-5-1","9822","85","DTree","0.940458015267176"
"coil2000","coil2000-5-1","9822","85","SVM","0.945547073791349"
"coil2000","coil2000-5-1","9822","85","MLP","0.945547073791349"
"coil2000","coil2000-5-1","9822","85","LogR","0.943002544529262"
"coil2000","coil2000-5-1","9822","85","KNN","0.922137404580153"
"coil2000","coil2000-5-1","9822","85","DTree","0.945547073791349"
"coil2000","coil2000-5-1","9822","85","SVM","0.932824427480916"
"coil2000","coil2000-5-1","9822","85","MLP","0.932824427480916"
"coil2000","coil2000-5-1","9822","85","LogR","0.931806615776081"
"coil2000","coil2000-5-1","9822","85","KNN","0.896692111959288"
"coil2000","coil2000-5-1","9822","85","DTree","0.932824427480916"
"coil2000","coil2000-5-1","9822","85","SVM","0.946055979643766"
"coil2000","coil2000-5-1","9822","85","MLP","0.946055979643766"
"coil2000","coil2000-5-1","9822","85","LogR","0.944020356234097"
"coil2000","coil2000-5-1","9822","85","KNN","0.931297709923664"
"coil2000","coil2000-5-1","9822","85","DTree","0.946055979643766"
"coil2000","coil2000-5-1","9822","85","SVM","0.945038167938931"
"coil2000","coil2000-5-1","9822","85","MLP","0.945038167938931"
"coil2000","coil2000-5-1","9822","85","LogR","0.934860050890585"
"coil2000","coil2000-5-1","9822","85","KNN","0.922137404580153"
"coil2000","coil2000-5-1","9822","85","DTree","0.945038167938931"
"coil2000","coil2000-5-1","9822","85","SVM","0.944529262086514"
"coil2000","coil2000-5-1","9822","85","MLP","0.944529262086514"
"coil2000","coil2000-5-1","9822","85","LogR","0.944529262086514"
"coil2000","coil2000-5-1","9822","85","KNN","0.923155216284987"
"coil2000","coil2000-5-1","9822","85","DTree","0.944529262086514"
"coil2000","coil2000-5-1","9822","85","SVM","0.940458015267176"
"coil2000","coil2000-5-1","9822","85","MLP","0.940458015267176"
"coil2000","coil2000-5-1","9822","85","LogR","0.939440203562341"
"coil2000","coil2000-5-1","9822","85","KNN","0.924681933842239"
"coil2000","coil2000-5-1","9822","85","DTree","0.940458015267176"
"coil2000","coil2000-5-1","9822","85","SVM","0.940458015267176"
"coil2000","coil2000-5-1","9822","85","MLP","0.940458015267176"
"coil2000","coil2000-5-1","9822","85","LogR","0.936386768447837"
"coil2000","coil2000-5-1","9822","85","KNN","0.922137404580153"
"coil2000","coil2000-5-1","9822","85","DTree","0.940458015267176"
"coil2000","coil2000-5-1","9822","85","SVM","0.933842239185751"
"coil2000","coil2000-5-1","9822","85","MLP","0.933842239185751"
"coil2000","coil2000-5-1","9822","85","LogR","0.931297709923664"
"coil2000","coil2000-5-1","9822","85","KNN","0.917557251908397"
"coil2000","coil2000-5-1","9822","85","DTree","0.933842239185751"
"coil2000","coil2000-5-1","9822","85","SVM","0.939949109414758"
"coil2000","coil2000-5-1","9822","85","MLP","0.939949109414758"
"coil2000","coil2000-5-1","9822","85","LogR","0.938422391857506"
"coil2000","coil2000-5-1","9822","85","KNN","0.917557251908397"
"coil2000","coil2000-5-1","9822","85","DTree","0.939949109414758"
"coil2000","coil2000-5-2","9822","85","SVM","0.939949109414758"
"coil2000","coil2000-5-2","9822","85","MLP","0.939949109414758"
"coil2000","coil2000-5-2","9822","85","LogR","0.940458015267176"
"coil2000","coil2000-5-2","9822","85","KNN","0.934351145038168"
"coil2000","coil2000-5-2","9822","85","DTree","0.939949109414758"
"coil2000","coil2000-5-2","9822","85","SVM","0.948091603053435"
"coil2000","coil2000-5-2","9822","85","MLP","0.948091603053435"
"coil2000","coil2000-5-2","9822","85","LogR","0.947582697201018"
"coil2000","coil2000-5-2","9822","85","KNN","0.924173027989822"
"coil2000","coil2000-5-2","9822","85","DTree","0.948091603053435"
"coil2000","coil2000-5-2","9822","85","SVM","0.934351145038168"
"coil2000","coil2000-5-2","9822","85","MLP","0.934351145038168"
"coil2000","coil2000-5-2","9822","85","LogR","0.910432569974555"
"coil2000","coil2000-5-2","9822","85","KNN","0.913994910941476"
"coil2000","coil2000-5-2","9822","85","DTree","0.934351145038168"
"coil2000","coil2000-5-2","9822","85","SVM","0.937913486005089"
"coil2000","coil2000-5-2","9822","85","MLP","0.937913486005089"
"coil2000","coil2000-5-2","9822","85","LogR","0.93587786259542"
"coil2000","coil2000-5-2","9822","85","KNN","0.919083969465649"
"coil2000","coil2000-5-2","9822","85","DTree","0.937913486005089"
"coil2000","coil2000-5-2","9822","85","SVM","0.94147582697201"
"coil2000","coil2000-5-2","9822","85","MLP","0.94147582697201"
"coil2000","coil2000-5-2","9822","85","LogR","0.940966921119593"
"coil2000","coil2000-5-2","9822","85","KNN","0.921628498727735"
"coil2000","coil2000-5-2","9822","85","DTree","0.94147582697201"
"coil2000","coil2000-5-2","9822","85","SVM","0.936386768447837"
"coil2000","coil2000-5-2","9822","85","MLP","0.936386768447837"
"coil2000","coil2000-5-2","9822","85","LogR","0.93587786259542"
"coil2000","coil2000-5-2","9822","85","KNN","0.916030534351145"
"coil2000","coil2000-5-2","9822","85","DTree","0.936386768447837"
"coil2000","coil2000-5-2","9822","85","SVM","0.930788804071247"
"coil2000","coil2000-5-2","9822","85","MLP","0.930788804071247"
"coil2000","coil2000-5-2","9822","85","LogR","0.927226463104326"
"coil2000","coil2000-5-2","9822","85","KNN","0.907888040712468"
"coil2000","coil2000-5-2","9822","85","DTree","0.930788804071247"
"coil2000","coil2000-5-2","9822","85","SVM","0.931806615776081"
"coil2000","coil2000-5-2","9822","85","MLP","0.921119592875318"
"coil2000","coil2000-5-2","9822","85","LogR","0.927735368956743"
"coil2000","coil2000-5-2","9822","85","KNN","0.913486005089059"
"coil2000","coil2000-5-2","9822","85","DTree","0.931806615776081"
"coil2000","coil2000-5-2","9822","85","SVM","0.939949109414758"
"coil2000","coil2000-5-2","9822","85","MLP","0.939949109414758"
"coil2000","coil2000-5-2","9822","85","LogR","0.938931297709924"
"coil2000","coil2000-5-2","9822","85","KNN","0.904834605597964"
"coil2000","coil2000-5-2","9822","85","DTree","0.939949109414758"
"coil2000","coil2000-5-2","9822","85","SVM","0.938422391857506"
"coil2000","coil2000-5-2","9822","85","MLP","0.938422391857506"
"coil2000","coil2000-5-2","9822","85","LogR","0.93587786259542"
"coil2000","coil2000-5-2","9822","85","KNN","0.913486005089059"
"coil2000","coil2000-5-2","9822","85","DTree","0.938422391857506"
"coil2000","coil2000-5-3","9822","85","SVM","0.940427698574338"
"coil2000","coil2000-5-3","9822","85","MLP","0.940427698574338"
"coil2000","coil2000-5-3","9822","85","LogR","0.940427698574338"
"coil2000","coil2000-5-3","9822","85","KNN","0.935845213849287"
"coil2000","coil2000-5-3","9822","85","DTree","0.940427698574338"
"coil2000","coil2000-5-3","9822","85","SVM","0.934826883910387"
"coil2000","coil2000-5-3","9822","85","MLP","0.934826883910387"
"coil2000","coil2000-5-3","9822","85","LogR","0.934826883910387"
"coil2000","coil2000-5-3","9822","85","KNN","0.911914460285132"
"coil2000","coil2000-5-3","9822","85","DTree","0.934826883910387"
"coil2000","coil2000-5-3","9822","85","SVM","0.934826883910387"
"coil2000","coil2000-5-3","9822","85","MLP","0.934826883910387"
"coil2000","coil2000-5-3","9822","85","LogR","0.928207739307536"
"coil2000","coil2000-5-3","9822","85","KNN","0.918533604887984"
"coil2000","coil2000-5-3","9822","85","DTree","0.934826883910387"
"coil2000","coil2000-5-3","9822","85","SVM","0.945519348268839"
"coil2000","coil2000-5-3","9822","85","MLP","0.945519348268839"
"coil2000","coil2000-5-3","9822","85","LogR","0.946028513238289"
"coil2000","coil2000-5-3","9822","85","KNN","0.912423625254583"
"coil2000","coil2000-5-3","9822","85","DTree","0.945519348268839"
"coil2000","coil2000-5-3","9822","85","SVM","0.941955193482688"
"coil2000","coil2000-5-3","9822","85","MLP","0.941955193482688"
"coil2000","coil2000-5-3","9822","85","LogR","0.936354378818737"
"coil2000","coil2000-5-3","9822","85","KNN","0.923625254582485"
"coil2000","coil2000-5-3","9822","85","DTree","0.941955193482688"
"coil2000","coil2000-5-3","9822","85","SVM","0.930753564154786"
"coil2000","coil2000-5-3","9822","85","MLP","0.930753564154786"
"coil2000","coil2000-5-3","9822","85","LogR","0.923625254582485"
"coil2000","coil2000-5-3","9822","85","KNN","0.903767820773931"
"coil2000","coil2000-5-3","9822","85","DTree","0.930753564154786"
"coil2000","coil2000-5-3","9822","85","SVM","0.941955193482688"
"coil2000","coil2000-5-3","9822","85","MLP","0.941955193482688"
"coil2000","coil2000-5-3","9822","85","LogR","0.939918533604888"
"coil2000","coil2000-5-3","9822","85","KNN","0.925152749490835"
"coil2000","coil2000-5-3","9822","85","DTree","0.941955193482688"
"coil2000","coil2000-5-3","9822","85","SVM","0.934826883910387"
"coil2000","coil2000-5-3","9822","85","MLP","0.913951120162933"
"coil2000","coil2000-5-3","9822","85","LogR","0.935845213849287"
"coil2000","coil2000-5-3","9822","85","KNN","0.920570264765784"
"coil2000","coil2000-5-3","9822","85","DTree","0.934826883910387"
"coil2000","coil2000-5-3","9822","85","SVM","0.94806517311609"
"coil2000","coil2000-5-3","9822","85","MLP","0.94806517311609"
"coil2000","coil2000-5-3","9822","85","LogR","0.916496945010183"
"coil2000","coil2000-5-3","9822","85","KNN","0.933299389002037"
"coil2000","coil2000-5-3","9822","85","DTree","0.94806517311609"
"coil2000","coil2000-5-3","9822","85","SVM","0.940427698574338"
"coil2000","coil2000-5-3","9822","85","MLP","0.940427698574338"
"coil2000","coil2000-5-3","9822","85","LogR","0.939409368635438"
"coil2000","coil2000-5-3","9822","85","KNN","0.915987780040733"
"coil2000","coil2000-5-3","9822","85","DTree","0.940427698574338"
"coil2000","coil2000-5-4","9822","85","SVM","0.940427698574338"
"coil2000","coil2000-5-4","9822","85","MLP","0.940427698574338"
"coil2000","coil2000-5-4","9822","85","LogR","0.939409368635438"
"coil2000","coil2000-5-4","9822","85","KNN","0.938900203665988"
"coil2000","coil2000-5-4","9822","85","DTree","0.940427698574338"
"coil2000","coil2000-5-4","9822","85","SVM","0.935845213849287"
"coil2000","coil2000-5-4","9822","85","MLP","0.935845213849287"
"coil2000","coil2000-5-4","9822","85","LogR","0.931771894093686"
"coil2000","coil2000-5-4","9822","85","KNN","0.915987780040733"
"coil2000","coil2000-5-4","9822","85","DTree","0.935845213849287"
"coil2000","coil2000-5-4","9822","85","SVM","0.943991853360489"
"coil2000","coil2000-5-4","9822","85","MLP","0.943991853360489"
"coil2000","coil2000-5-4","9822","85","LogR","0.942464358452138"
"coil2000","coil2000-5-4","9822","85","KNN","0.929735234215886"
"coil2000","coil2000-5-4","9822","85","DTree","0.943991853360489"
"coil2000","coil2000-5-4","9822","85","SVM","0.94755600814664"
"coil2000","coil2000-5-4","9822","85","MLP","0.94755600814664"
"coil2000","coil2000-5-4","9822","85","LogR","0.939409368635438"
"coil2000","coil2000-5-4","9822","85","KNN","0.923625254582485"
"coil2000","coil2000-5-4","9822","85","DTree","0.94755600814664"
"coil2000","coil2000-5-4","9822","85","SVM","0.932281059063136"
"coil2000","coil2000-5-4","9822","85","MLP","0.932281059063136"
"coil2000","coil2000-5-4","9822","85","LogR","0.915478615071283"
"coil2000","coil2000-5-4","9822","85","KNN","0.917006109979633"
"coil2000","coil2000-5-4","9822","85","DTree","0.932281059063136"
"coil2000","coil2000-5-4","9822","85","SVM","0.942973523421589"
"coil2000","coil2000-5-4","9822","85","MLP","0.942973523421589"
"coil2000","coil2000-5-4","9822","85","LogR","0.937881873727088"
"coil2000","coil2000-5-4","9822","85","KNN","0.912423625254583"
"coil2000","coil2000-5-4","9822","85","DTree","0.942973523421589"
"coil2000","coil2000-5-4","9822","85","SVM","0.928716904276986"
"coil2000","coil2000-5-4","9822","85","MLP","0.928716904276986"
"coil2000","coil2000-5-4","9822","85","LogR","0.926680244399185"
"coil2000","coil2000-5-4","9822","85","KNN","0.907841140529532"
"coil2000","coil2000-5-4","9822","85","DTree","0.928716904276986"
"coil2000","coil2000-5-4","9822","85","SVM","0.941955193482688"
"coil2000","coil2000-5-4","9822","85","MLP","0.941955193482688"
"coil2000","coil2000-5-4","9822","85","LogR","0.939409368635438"
"coil2000","coil2000-5-4","9822","85","KNN","0.916496945010183"
"coil2000","coil2000-5-4","9822","85","DTree","0.941955193482688"
"coil2000","coil2000-5-4","9822","85","SVM","0.940427698574338"
"coil2000","coil2000-5-4","9822","85","MLP","0.940427698574338"
"coil2000","coil2000-5-4","9822","85","LogR","0.928207739307536"
"coil2000","coil2000-5-4","9822","85","KNN","0.920570264765784"
"coil2000","coil2000-5-4","9822","85","DTree","0.940427698574338"
"coil2000","coil2000-5-4","9822","85","SVM","0.939918533604888"
"coil2000","coil2000-5-4","9822","85","MLP","0.939918533604888"
"coil2000","coil2000-5-4","9822","85","LogR","0.933808553971487"
"coil2000","coil2000-5-4","9822","85","KNN","0.918533604887984"
"coil2000","coil2000-5-4","9822","85","DTree","0.939918533604888"
"coil2000","coil2000-5-5","9822","85","SVM","0.940427698574338"
"coil2000","coil2000-5-5","9822","85","MLP","0.940427698574338"
"coil2000","coil2000-5-5","9822","85","LogR","0.933299389002037"
"coil2000","coil2000-5-5","9822","85","KNN","0.938391038696538"
"coil2000","coil2000-5-5","9822","85","DTree","0.940427698574338"
"coil2000","coil2000-5-5","9822","85","SVM","0.932281059063136"
"coil2000","coil2000-5-5","9822","85","MLP","0.932281059063136"
"coil2000","coil2000-5-5","9822","85","LogR","0.923116089613035"
"coil2000","coil2000-5-5","9822","85","KNN","0.909877800407332"
"coil2000","coil2000-5-5","9822","85","DTree","0.932281059063136"
"coil2000","coil2000-5-5","9822","85","SVM","0.938900203665988"
"coil2000","coil2000-5-5","9822","85","MLP","0.938900203665988"
"coil2000","coil2000-5-5","9822","85","LogR","0.933299389002037"
"coil2000","coil2000-5-5","9822","85","KNN","0.918533604887984"
"coil2000","coil2000-5-5","9822","85","DTree","0.938900203665988"
"coil2000","coil2000-5-5","9822","85","SVM","0.943482688391039"
"coil2000","coil2000-5-5","9822","85","MLP","0.943482688391039"
"coil2000","coil2000-5-5","9822","85","LogR","0.937372708757637"
"coil2000","coil2000-5-5","9822","85","KNN","0.921588594704684"
"coil2000","coil2000-5-5","9822","85","DTree","0.943482688391039"
"coil2000","coil2000-5-5","9822","85","SVM","0.942973523421589"
"coil2000","coil2000-5-5","9822","85","MLP","0.942973523421589"
"coil2000","coil2000-5-5","9822","85","LogR","0.939409368635438"
"coil2000","coil2000-5-5","9822","85","KNN","0.914969450101833"
"coil2000","coil2000-5-5","9822","85","DTree","0.942973523421589"
"coil2000","coil2000-5-5","9822","85","SVM","0.936354378818737"
"coil2000","coil2000-5-5","9822","85","MLP","0.936354378818737"
"coil2000","coil2000-5-5","9822","85","LogR","0.930753564154786"
"coil2000","coil2000-5-5","9822","85","KNN","0.925661914460285"
"coil2000","coil2000-5-5","9822","85","DTree","0.936354378818737"
"coil2000","coil2000-5-5","9822","85","SVM","0.935845213849287"
"coil2000","coil2000-5-5","9822","85","MLP","0.935845213849287"
"coil2000","coil2000-5-5","9822","85","LogR","0.929226069246436"
"coil2000","coil2000-5-5","9822","85","KNN","0.918533604887984"
"coil2000","coil2000-5-5","9822","85","DTree","0.935845213849287"
"coil2000","coil2000-5-5","9822","85","SVM","0.940936863543788"
"coil2000","coil2000-5-5","9822","85","MLP","0.930244399185336"
"coil2000","coil2000-5-5","9822","85","LogR","0.934826883910387"
"coil2000","coil2000-5-5","9822","85","KNN","0.908859470468432"
"coil2000","coil2000-5-5","9822","85","DTree","0.940936863543788"
"coil2000","coil2000-5-5","9822","85","SVM","0.947046843177189"
"coil2000","coil2000-5-5","9822","85","MLP","0.947046843177189"
"coil2000","coil2000-5-5","9822","85","LogR","0.941446028513238"
"coil2000","coil2000-5-5","9822","85","KNN","0.934317718940937"
"coil2000","coil2000-5-5","9822","85","DTree","0.947046843177189"
"coil2000","coil2000-5-5","9822","85","SVM","0.937881873727088"
"coil2000","coil2000-5-5","9822","85","MLP","0.937881873727088"
"coil2000","coil2000-5-5","9822","85","LogR","0.939918533604888"
"coil2000","coil2000-5-5","9822","85","KNN","0.918024439918534"
"coil2000","coil2000-5-5","9822","85","DTree","0.937881873727088"
"coil2000","coil2000","9822","85","SVM","0.940529531568228"
"coil2000","coil2000","9822","85","MLP","0.940529531568228"
"coil2000","coil2000","9822","85","LogR","0.940122199592668"
"coil2000","coil2000","9822","85","KNN","0.933604887983707"
"coil2000","coil2000","9822","85","DTree","0.940529531568228"
"coil2000","coil2000","9822","85","SVM","0.938492871690428"
"coil2000","coil2000","9822","85","MLP","0.938492871690428"
"coil2000","coil2000","9822","85","LogR","0.936048879837067"
"coil2000","coil2000","9822","85","KNN","0.928309572301426"
"coil2000","coil2000","9822","85","DTree","0.938492871690428"
"coil2000","coil2000","9822","85","SVM","0.945417515274949"
"coil2000","coil2000","9822","85","MLP","0.945417515274949"
"coil2000","coil2000","9822","85","LogR","0.944602851323829"
"coil2000","coil2000","9822","85","KNN","0.934012219959267"
"coil2000","coil2000","9822","85","DTree","0.945417515274949"
"coil2000","coil2000","9822","85","SVM","0.938900203665988"
"coil2000","coil2000","9822","85","MLP","0.938900203665988"
"coil2000","coil2000","9822","85","LogR","0.936863543788187"
"coil2000","coil2000","9822","85","KNN","0.923421588594705"
"coil2000","coil2000","9822","85","DTree","0.938900203665988"
"coil2000","coil2000","9822","85","SVM","0.944195519348269"
"coil2000","coil2000","9822","85","MLP","0.944195519348269"
"coil2000","coil2000","9822","85","LogR","0.944602851323829"
"coil2000","coil2000","9822","85","KNN","0.935641547861507"
"coil2000","coil2000","9822","85","DTree","0.944195519348269"
"coil2000","coil2000","9822","85","SVM","0.940097799511002"
"coil2000","coil2000","9822","85","MLP","0.940097799511002"
"coil2000","coil2000","9822","85","LogR","0.939690301548492"
"coil2000","coil2000","9822","85","KNN","0.93398533007335"
"coil2000","coil2000","9822","85","DTree","0.940097799511002"
"coil2000","coil2000","9822","85","SVM","0.939714867617108"
"coil2000","coil2000","9822","85","MLP","0.939714867617108"
"coil2000","coil2000","9822","85","LogR","0.939307535641548"
"coil2000","coil2000","9822","85","KNN","0.933197556008147"
"coil2000","coil2000","9822","85","DTree","0.939714867617108"
"coil2000","coil2000","9822","85","SVM","0.936456211812627"
"coil2000","coil2000","9822","85","MLP","0.936456211812627"
"coil2000","coil2000","9822","85","LogR","0.935641547861507"
"coil2000","coil2000","9822","85","KNN","0.919755600814664"
"coil2000","coil2000","9822","85","DTree","0.936456211812627"
"coil2000","coil2000","9822","85","SVM","0.939307535641548"
"coil2000","coil2000","9822","85","MLP","0.939307535641548"
"coil2000","coil2000","9822","85","LogR","0.938085539714868"
"coil2000","coil2000","9822","85","KNN","0.928309572301426"
"coil2000","coil2000","9822","85","DTree","0.939307535641548"
"coil2000","coil2000","9822","85","SVM","0.945417515274949"
"coil2000","coil2000","9822","85","MLP","0.945417515274949"
"coil2000","coil2000","9822","85","LogR","0.942973523421589"
"coil2000","coil2000","9822","85","KNN","0.932790224032587"
"coil2000","coil2000","9822","85","DTree","0.945417515274949"
"coil2000","coil2000","9822","85","SVM","0.939307535641548"
"coil2000","coil2000","9822","85","MLP","0.939307535641548"
"coil2000","coil2000","9822","85","LogR","0.937678207739308"
"coil2000","coil2000","9822","85","KNN","0.931568228105906"
"coil2000","coil2000","9822","85","DTree","0.939307535641548"
"coil2000","coil2000","9822","85","SVM","0.941344195519348"
"coil2000","coil2000","9822","85","MLP","0.941344195519348"
"coil2000","coil2000","9822","85","LogR","0.939714867617108"
"coil2000","coil2000","9822","85","KNN","0.933197556008147"
"coil2000","coil2000","9822","85","DTree","0.941344195519348"
"coil2000","coil2000","9822","85","SVM","0.942566191446028"
"coil2000","coil2000","9822","85","MLP","0.942566191446028"
"coil2000","coil2000","9822","85","LogR","0.941751527494908"
"coil2000","coil2000","9822","85","KNN","0.931160896130346"
"coil2000","coil2000","9822","85","DTree","0.942566191446028"
"coil2000","coil2000","9822","85","SVM","0.938060309698452"
"coil2000","coil2000","9822","85","MLP","0.938060309698452"
"coil2000","coil2000","9822","85","LogR","0.937652811735941"
"coil2000","coil2000","9822","85","KNN","0.925427872860636"
"coil2000","coil2000","9822","85","DTree","0.938060309698452"
"coil2000","coil2000","9822","85","SVM","0.940936863543788"
"coil2000","coil2000","9822","85","MLP","0.940936863543788"
"coil2000","coil2000","9822","85","LogR","0.939307535641548"
"coil2000","coil2000","9822","85","KNN","0.934012219959267"
"coil2000","coil2000","9822","85","DTree","0.940936863543788"
"coil2000","coil2000","9822","85","SVM","0.942973523421589"
"coil2000","coil2000","9822","85","MLP","0.942973523421589"
"coil2000","coil2000","9822","85","LogR","0.941751527494908"
"coil2000","coil2000","9822","85","KNN","0.936456211812627"
"coil2000","coil2000","9822","85","DTree","0.942973523421589"
"coil2000","coil2000","9822","85","SVM","0.942566191446028"
"coil2000","coil2000","9822","85","MLP","0.942566191446028"
"coil2000","coil2000","9822","85","LogR","0.942566191446028"
"coil2000","coil2000","9822","85","KNN","0.936456211812627"
"coil2000","coil2000","9822","85","DTree","0.942566191446028"
"coil2000","coil2000","9822","85","SVM","0.942566191446028"
"coil2000","coil2000","9822","85","MLP","0.942566191446028"
"coil2000","coil2000","9822","85","LogR","0.942973523421589"
"coil2000","coil2000","9822","85","KNN","0.934826883910387"
"coil2000","coil2000","9822","85","DTree","0.942566191446028"
"coil2000","coil2000","9822","85","SVM","0.933604887983707"
"coil2000","coil2000","9822","85","MLP","0.933604887983707"
"coil2000","coil2000","9822","85","LogR","0.933197556008147"
"coil2000","coil2000","9822","85","KNN","0.926272912423625"
"coil2000","coil2000","9822","85","DTree","0.933604887983707"
"coil2000","coil2000","9822","85","SVM","0.940936863543788"
"coil2000","coil2000","9822","85","MLP","0.940936863543788"
"coil2000","coil2000","9822","85","LogR","0.936048879837067"
"coil2000","coil2000","9822","85","KNN","0.929124236252546"
"coil2000","coil2000","9822","85","DTree","0.940936863543788"
"coil2000","coil2000","9822","85","SVM","0.940912795436023"
"coil2000","coil2000","9822","85","MLP","0.940912795436023"
"coil2000","coil2000","9822","85","LogR","0.940097799511002"
"coil2000","coil2000","9822","85","KNN","0.931132844335778"
"coil2000","coil2000","9822","85","DTree","0.940912795436023"
"coil2000","coil2000","9822","85","SVM","0.943357783211084"
"coil2000","coil2000","9822","85","MLP","0.943357783211084"
"coil2000","coil2000","9822","85","LogR","0.943357783211084"
"coil2000","coil2000","9822","85","KNN","0.937245313773431"
"coil2000","coil2000","9822","85","DTree","0.943357783211084"
"coil2000","coil2000","9822","85","SVM","0.940529531568228"
"coil2000","coil2000","9822","85","MLP","0.940529531568228"
"coil2000","coil2000","9822","85","LogR","0.939307535641548"
"coil2000","coil2000","9822","85","KNN","0.935641547861507"
"coil2000","coil2000","9822","85","DTree","0.940529531568228"
"coil2000","coil2000","9822","85","SVM","0.939307535641548"
"coil2000","coil2000","9822","85","MLP","0.939307535641548"
"coil2000","coil2000","9822","85","LogR","0.935641547861507"
"coil2000","coil2000","9822","85","KNN","0.923828920570265"
"coil2000","coil2000","9822","85","DTree","0.939307535641548"
"coil2000","coil2000","9822","85","SVM","0.942973523421589"
"coil2000","coil2000","9822","85","MLP","0.942973523421589"
"coil2000","coil2000","9822","85","LogR","0.943788187372709"
"coil2000","coil2000","9822","85","KNN","0.939714867617108"
"coil2000","coil2000","9822","85","DTree","0.942973523421589"
"coil2000","coil2000","9822","85","SVM","0.937678207739308"
"coil2000","coil2000","9822","85","MLP","0.937678207739308"
"coil2000","coil2000","9822","85","LogR","0.938085539714868"
"coil2000","coil2000","9822","85","KNN","0.928716904276986"
"coil2000","coil2000","9822","85","DTree","0.937678207739308"
"coil2000","coil2000","9822","85","SVM","0.938875305623472"
"coil2000","coil2000","9822","85","MLP","0.938875305623472"
"coil2000","coil2000","9822","85","LogR","0.938467807660962"
"coil2000","coil2000","9822","85","KNN","0.933577832110839"
"coil2000","coil2000","9822","85","DTree","0.938875305623472"
"coil2000","coil2000","9822","85","SVM","0.940505297473513"
"coil2000","coil2000","9822","85","MLP","0.940505297473513"
"coil2000","coil2000","9822","85","LogR","0.940912795436023"
"coil2000","coil2000","9822","85","KNN","0.932762836185819"
"coil2000","coil2000","9822","85","DTree","0.940505297473513"
"coil2000","coil2000","9822","85","SVM","0.936863543788187"
"coil2000","coil2000","9822","85","MLP","0.936863543788187"
"coil2000","coil2000","9822","85","LogR","0.936863543788187"
"coil2000","coil2000","9822","85","KNN","0.931975560081466"
"coil2000","coil2000","9822","85","DTree","0.936863543788187"
"coil2000","coil2000","9822","85","SVM","0.941344195519348"
"coil2000","coil2000","9822","85","MLP","0.941344195519348"
"coil2000","coil2000","9822","85","LogR","0.940936863543788"
"coil2000","coil2000","9822","85","KNN","0.934419551934827"
"coil2000","coil2000","9822","85","DTree","0.941344195519348"
"coil2000","coil2000","9822","85","SVM","0.942158859470468"
"coil2000","coil2000","9822","85","MLP","0.942158859470468"
"coil2000","coil2000","9822","85","LogR","0.942566191446028"
"coil2000","coil2000","9822","85","KNN","0.934826883910387"
"coil2000","coil2000","9822","85","DTree","0.942158859470468"
"coil2000","coil2000","9822","85","SVM","0.938900203665988"
"coil2000","coil2000","9822","85","MLP","0.938900203665988"
"coil2000","coil2000","9822","85","LogR","0.937270875763747"
"coil2000","coil2000","9822","85","KNN","0.932790224032587"
"coil2000","coil2000","9822","85","DTree","0.938900203665988"
"coil2000","coil2000","9822","85","SVM","0.942973523421589"
"coil2000","coil2000","9822","85","MLP","0.942973523421589"
"coil2000","coil2000","9822","85","LogR","0.942973523421589"
"coil2000","coil2000","9822","85","KNN","0.929938900203666"
"coil2000","coil2000","9822","85","DTree","0.942973523421589"
"coil2000","coil2000","9822","85","SVM","0.943380855397149"
"coil2000","coil2000","9822","85","MLP","0.942566191446028"
"coil2000","coil2000","9822","85","LogR","0.940936863543788"
"coil2000","coil2000","9822","85","KNN","0.934826883910387"
"coil2000","coil2000","9822","85","DTree","0.942566191446028"
"coil2000","coil2000","9822","85","SVM","0.942973523421589"
"coil2000","coil2000","9822","85","MLP","0.942973523421589"
"coil2000","coil2000","9822","85","LogR","0.942566191446028"
"coil2000","coil2000","9822","85","KNN","0.932382892057027"
"coil2000","coil2000","9822","85","DTree","0.942973523421589"
"coil2000","coil2000","9822","85","SVM","0.940936863543788"
"coil2000","coil2000","9822","85","MLP","0.940936863543788"
"coil2000","coil2000","9822","85","LogR","0.940122199592668"
"coil2000","coil2000","9822","85","KNN","0.935234215885947"
"coil2000","coil2000","9822","85","DTree","0.940936863543788"
"coil2000","coil2000","9822","85","SVM","0.940529531568228"
"coil2000","coil2000","9822","85","MLP","0.940529531568228"
"coil2000","coil2000","9822","85","LogR","0.940529531568228"
"coil2000","coil2000","9822","85","KNN","0.931568228105906"
"coil2000","coil2000","9822","85","DTree","0.940529531568228"
"coil2000","coil2000","9822","85","SVM","0.937678207739308"
"coil2000","coil2000","9822","85","MLP","0.937678207739308"
"coil2000","coil2000","9822","85","LogR","0.938492871690428"
"coil2000","coil2000","9822","85","KNN","0.928716904276986"
"coil2000","coil2000","9822","85","DTree","0.937678207739308"
"coil2000","coil2000","9822","85","SVM","0.940122199592668"
"coil2000","coil2000","9822","85","MLP","0.938900203665988"
"coil2000","coil2000","9822","85","LogR","0.938492871690428"
"coil2000","coil2000","9822","85","KNN","0.931160896130346"
"coil2000","coil2000","9822","85","DTree","0.938900203665988"
"coil2000","coil2000","9822","85","SVM","0.938900203665988"
"coil2000","coil2000","9822","85","MLP","0.938900203665988"
"coil2000","coil2000","9822","85","LogR","0.939307535641548"
"coil2000","coil2000","9822","85","KNN","0.928716904276986"
"coil2000","coil2000","9822","85","DTree","0.938900203665988"
"coil2000","coil2000","9822","85","SVM","0.940097799511002"
"coil2000","coil2000","9822","85","MLP","0.940097799511002"
"coil2000","coil2000","9822","85","LogR","0.940505297473513"
"coil2000","coil2000","9822","85","KNN","0.928687856560717"
"coil2000","coil2000","9822","85","DTree","0.940097799511002"
"coil2000","coil2000","9822","85","SVM","0.939307535641548"
"coil2000","coil2000","9822","85","MLP","0.939307535641548"
"coil2000","coil2000","9822","85","LogR","0.936863543788187"
"coil2000","coil2000","9822","85","KNN","0.923014256619145"
"coil2000","coil2000","9822","85","DTree","0.939307535641548"
"coil2000","coil2000","9822","85","SVM","0.940936863543788"
"coil2000","coil2000","9822","85","MLP","0.940936863543788"
"coil2000","coil2000","9822","85","LogR","0.938492871690428"
"coil2000","coil2000","9822","85","KNN","0.934826883910387"
"coil2000","coil2000","9822","85","DTree","0.940936863543788"
"coil2000","coil2000","9822","85","SVM","0.937678207739308"
"coil2000","coil2000","9822","85","MLP","0.937678207739308"
"coil2000","coil2000","9822","85","LogR","0.936456211812627"
"coil2000","coil2000","9822","85","KNN","0.933604887983707"
"coil2000","coil2000","9822","85","DTree","0.937678207739308"
"coil2000","coil2000","9822","85","SVM","0.934826883910387"
"coil2000","coil2000","9822","85","MLP","0.934826883910387"
"coil2000","coil2000","9822","85","LogR","0.934012219959267"
"coil2000","coil2000","9822","85","KNN","0.927087576374745"
"coil2000","coil2000","9822","85","DTree","0.934826883910387"
"coil2000","coil2000","9822","85","SVM","0.941751527494908"
"coil2000","coil2000","9822","85","MLP","0.941751527494908"
"coil2000","coil2000","9822","85","LogR","0.939714867617108"
"coil2000","coil2000","9822","85","KNN","0.938085539714868"
"coil2000","coil2000","9822","85","DTree","0.941751527494908"
"coil2000","coil2000","9822","85","SVM","0.934419551934827"
"coil2000","coil2000","9822","85","MLP","0.934419551934827"
"coil2000","coil2000","9822","85","LogR","0.932382892057027"
"coil2000","coil2000","9822","85","KNN","0.920162932790224"
"coil2000","coil2000","9822","85","DTree","0.934419551934827"
"coil2000","coil2000","9822","85","SVM","0.938085539714868"
"coil2000","coil2000","9822","85","MLP","0.938085539714868"
"coil2000","coil2000","9822","85","LogR","0.939714867617108"
"coil2000","coil2000","9822","85","KNN","0.931568228105906"
"coil2000","coil2000","9822","85","DTree","0.938085539714868"
"coil2000","coil2000","9822","85","SVM","0.939307535641548"
"coil2000","coil2000","9822","85","MLP","0.939307535641548"
"coil2000","coil2000","9822","85","LogR","0.938492871690428"
"coil2000","coil2000","9822","85","KNN","0.930346232179226"
"coil2000","coil2000","9822","85","DTree","0.939307535641548"
"coil2000","coil2000","9822","85","SVM","0.939307535641548"
"coil2000","coil2000","9822","85","MLP","0.939307535641548"
"coil2000","coil2000","9822","85","LogR","0.939714867617108"
"coil2000","coil2000","9822","85","KNN","0.937270875763747"
"coil2000","coil2000","9822","85","DTree","0.939307535641548"
