"dataset","subset","instances","features","algorithm","accuracy"
"housevotes","housevotes-5-1","232","16","SVM","0.977777777777778"
"housevotes","housevotes-5-1","232","16","MLP","0.933333333333333"
"housevotes","housevotes-5-1","232","16","LogR","0.911111111111111"
"housevotes","housevotes-5-1","232","16","KNN","0.977777777777778"
"housevotes","housevotes-5-1","232","16","DTree","0.488888888888889"
"housevotes","housevotes-5-1","232","16","SVM","0.955555555555556"
"housevotes","housevotes-5-1","232","16","MLP","1"
"housevotes","housevotes-5-1","232","16","LogR","1"
"housevotes","housevotes-5-1","232","16","KNN","0.955555555555556"
"housevotes","housevotes-5-1","232","16","DTree","0.622222222222222"
"housevotes","housevotes-5-1","232","16","SVM","1"
"housevotes","housevotes-5-1","232","16","MLP","1"
"housevotes","housevotes-5-1","232","16","LogR","1"
"housevotes","housevotes-5-1","232","16","KNN","1"
"housevotes","housevotes-5-1","232","16","DTree","0.533333333333333"
"housevotes","housevotes-5-1","232","16","SVM","0.933333333333333"
"housevotes","housevotes-5-1","232","16","MLP","1"
"housevotes","housevotes-5-1","232","16","LogR","0.955555555555556"
"housevotes","housevotes-5-1","232","16","KNN","0.955555555555556"
"housevotes","housevotes-5-1","232","16","DTree","0.422222222222222"
"housevotes","housevotes-5-1","232","16","SVM","0.977777777777778"
"housevotes","housevotes-5-1","232","16","MLP","0.911111111111111"
"housevotes","housevotes-5-1","232","16","LogR","0.911111111111111"
"housevotes","housevotes-5-1","232","16","KNN","0.888888888888889"
"housevotes","housevotes-5-1","232","16","DTree","0.577777777777778"
"housevotes","housevotes-5-1","232","16","SVM","0.977777777777778"
"housevotes","housevotes-5-1","232","16","MLP","0.955555555555556"
"housevotes","housevotes-5-1","232","16","LogR","0.977777777777778"
"housevotes","housevotes-5-1","232","16","KNN","0.977777777777778"
"housevotes","housevotes-5-1","232","16","DTree","0.622222222222222"
"housevotes","housevotes-5-1","232","16","SVM","1"
"housevotes","housevotes-5-1","232","16","MLP","0.955555555555556"
"housevotes","housevotes-5-1","232","16","LogR","0.933333333333333"
"housevotes","housevotes-5-1","232","16","KNN","0.933333333333333"
"housevotes","housevotes-5-1","232","16","DTree","0.355555555555556"
"housevotes","housevotes-5-1","232","16","SVM","0.955555555555556"
"housevotes","housevotes-5-1","232","16","MLP","1"
"housevotes","housevotes-5-1","232","16","LogR","0.844444444444444"
"housevotes","housevotes-5-1","232","16","KNN","0.955555555555556"
"housevotes","housevotes-5-1","232","16","DTree","0.466666666666667"
"housevotes","housevotes-5-1","232","16","SVM","0.955555555555556"
"housevotes","housevotes-5-1","232","16","MLP","0.933333333333333"
"housevotes","housevotes-5-1","232","16","LogR","0.911111111111111"
"housevotes","housevotes-5-1","232","16","KNN","0.933333333333333"
"housevotes","housevotes-5-1","232","16","DTree","0.444444444444444"
"housevotes","housevotes-5-1","232","16","SVM","1"
"housevotes","housevotes-5-1","232","16","MLP","0.977777777777778"
"housevotes","housevotes-5-1","232","16","LogR","0.977777777777778"
"housevotes","housevotes-5-1","232","16","KNN","0.977777777777778"
"housevotes","housevotes-5-1","232","16","DTree","0.688888888888889"
"housevotes","housevotes-5-2","232","16","SVM","0.976744186046512"
"housevotes","housevotes-5-2","232","16","MLP","0.953488372093023"
"housevotes","housevotes-5-2","232","16","LogR","0.953488372093023"
"housevotes","housevotes-5-2","232","16","KNN","0.953488372093023"
"housevotes","housevotes-5-2","232","16","DTree","0.511627906976744"
"housevotes","housevotes-5-2","232","16","SVM","0.976744186046512"
"housevotes","housevotes-5-2","232","16","MLP","0.953488372093023"
"housevotes","housevotes-5-2","232","16","LogR","0.953488372093023"
"housevotes","housevotes-5-2","232","16","KNN","0.930232558139535"
"housevotes","housevotes-5-2","232","16","DTree","0.488372093023256"
"housevotes","housevotes-5-2","232","16","SVM","0.976744186046512"
"housevotes","housevotes-5-2","232","16","MLP","0.976744186046512"
"housevotes","housevotes-5-2","232","16","LogR","0.930232558139535"
"housevotes","housevotes-5-2","232","16","KNN","0.976744186046512"
"housevotes","housevotes-5-2","232","16","DTree","0.604651162790698"
"housevotes","housevotes-5-2","232","16","SVM","0.976744186046512"
"housevotes","housevotes-5-2","232","16","MLP","1"
"housevotes","housevotes-5-2","232","16","LogR","0.976744186046512"
"housevotes","housevotes-5-2","232","16","KNN","0.883720930232558"
"housevotes","housevotes-5-2","232","16","DTree","0.488372093023256"
"housevotes","housevotes-5-2","232","16","SVM","0.953488372093023"
"housevotes","housevotes-5-2","232","16","MLP","0.976744186046512"
"housevotes","housevotes-5-2","232","16","LogR","0.930232558139535"
"housevotes","housevotes-5-2","232","16","KNN","0.953488372093023"
"housevotes","housevotes-5-2","232","16","DTree","0.534883720930233"
"housevotes","housevotes-5-2","232","16","SVM","1"
"housevotes","housevotes-5-2","232","16","MLP","1"
"housevotes","housevotes-5-2","232","16","LogR","0.953488372093023"
"housevotes","housevotes-5-2","232","16","KNN","0.976744186046512"
"housevotes","housevotes-5-2","232","16","DTree","0.348837209302326"
"housevotes","housevotes-5-2","232","16","SVM","0.976744186046512"
"housevotes","housevotes-5-2","232","16","MLP","1"
"housevotes","housevotes-5-2","232","16","LogR","1"
"housevotes","housevotes-5-2","232","16","KNN","0.976744186046512"
"housevotes","housevotes-5-2","232","16","DTree","0.395348837209302"
"housevotes","housevotes-5-2","232","16","SVM","0.976744186046512"
"housevotes","housevotes-5-2","232","16","MLP","1"
"housevotes","housevotes-5-2","232","16","LogR","1"
"housevotes","housevotes-5-2","232","16","KNN","0.906976744186046"
"housevotes","housevotes-5-2","232","16","DTree","0.395348837209302"
"housevotes","housevotes-5-2","232","16","SVM","0.930232558139535"
"housevotes","housevotes-5-2","232","16","MLP","0.883720930232558"
"housevotes","housevotes-5-2","232","16","LogR","0.906976744186046"
"housevotes","housevotes-5-2","232","16","KNN","0.906976744186046"
"housevotes","housevotes-5-2","232","16","DTree","0.558139534883721"
"housevotes","housevotes-5-2","232","16","SVM","1"
"housevotes","housevotes-5-2","232","16","MLP","0.976744186046512"
"housevotes","housevotes-5-2","232","16","LogR","0.930232558139535"
"housevotes","housevotes-5-2","232","16","KNN","0.976744186046512"
"housevotes","housevotes-5-2","232","16","DTree","0.534883720930233"
"housevotes","housevotes-5-3","232","16","SVM","0.910714285714286"
"housevotes","housevotes-5-3","232","16","MLP","0.964285714285714"
"housevotes","housevotes-5-3","232","16","LogR","0.928571428571429"
"housevotes","housevotes-5-3","232","16","KNN","0.928571428571429"
"housevotes","housevotes-5-3","232","16","DTree","0.571428571428571"
"housevotes","housevotes-5-3","232","16","SVM","0.982142857142857"
"housevotes","housevotes-5-3","232","16","MLP","1"
"housevotes","housevotes-5-3","232","16","LogR","0.946428571428571"
"housevotes","housevotes-5-3","232","16","KNN","0.928571428571429"
"housevotes","housevotes-5-3","232","16","DTree","0.392857142857143"
"housevotes","housevotes-5-3","232","16","SVM","0.910714285714286"
"housevotes","housevotes-5-3","232","16","MLP","0.982142857142857"
"housevotes","housevotes-5-3","232","16","LogR","0.982142857142857"
"housevotes","housevotes-5-3","232","16","KNN","0.892857142857143"
"housevotes","housevotes-5-3","232","16","DTree","0.464285714285714"
"housevotes","housevotes-5-3","232","16","SVM","0.946428571428571"
"housevotes","housevotes-5-3","232","16","MLP","0.964285714285714"
"housevotes","housevotes-5-3","232","16","LogR","0.928571428571429"
"housevotes","housevotes-5-3","232","16","KNN","0.946428571428571"
"housevotes","housevotes-5-3","232","16","DTree","0.571428571428571"
"housevotes","housevotes-5-3","232","16","SVM","0.964285714285714"
"housevotes","housevotes-5-3","232","16","MLP","0.910714285714286"
"housevotes","housevotes-5-3","232","16","LogR","0.892857142857143"
"housevotes","housevotes-5-3","232","16","KNN","0.928571428571429"
"housevotes","housevotes-5-3","232","16","DTree","0.482142857142857"
"housevotes","housevotes-5-3","232","16","SVM","0.910714285714286"
"housevotes","housevotes-5-3","232","16","MLP","0.964285714285714"
"housevotes","housevotes-5-3","232","16","LogR","0.928571428571429"
"housevotes","housevotes-5-3","232","16","KNN","0.910714285714286"
"housevotes","housevotes-5-3","232","16","DTree","0.357142857142857"
"housevotes","housevotes-5-3","232","16","SVM","0.946428571428571"
"housevotes","housevotes-5-3","232","16","MLP","0.928571428571429"
"housevotes","housevotes-5-3","232","16","LogR","0.928571428571429"
"housevotes","housevotes-5-3","232","16","KNN","0.910714285714286"
"housevotes","housevotes-5-3","232","16","DTree","0.607142857142857"
"housevotes","housevotes-5-3","232","16","SVM","0.982142857142857"
"housevotes","housevotes-5-3","232","16","MLP","0.928571428571429"
"housevotes","housevotes-5-3","232","16","LogR","0.928571428571429"
"housevotes","housevotes-5-3","232","16","KNN","0.964285714285714"
"housevotes","housevotes-5-3","232","16","DTree","0.589285714285714"
"housevotes","housevotes-5-3","232","16","SVM","0.875"
"housevotes","housevotes-5-3","232","16","MLP","0.964285714285714"
"housevotes","housevotes-5-3","232","16","LogR","0.928571428571429"
"housevotes","housevotes-5-3","232","16","KNN","0.875"
"housevotes","housevotes-5-3","232","16","DTree","0.482142857142857"
"housevotes","housevotes-5-3","232","16","SVM","0.982142857142857"
"housevotes","housevotes-5-3","232","16","MLP","0.982142857142857"
"housevotes","housevotes-5-3","232","16","LogR","0.964285714285714"
"housevotes","housevotes-5-3","232","16","KNN","0.892857142857143"
"housevotes","housevotes-5-3","232","16","DTree","0.589285714285714"
"housevotes","housevotes-5-4","232","16","SVM","0.956521739130435"
"housevotes","housevotes-5-4","232","16","MLP","0.956521739130435"
"housevotes","housevotes-5-4","232","16","LogR","0.956521739130435"
"housevotes","housevotes-5-4","232","16","KNN","0.91304347826087"
"housevotes","housevotes-5-4","232","16","DTree","0.565217391304348"
"housevotes","housevotes-5-4","232","16","SVM","0.956521739130435"
"housevotes","housevotes-5-4","232","16","MLP","0.956521739130435"
"housevotes","housevotes-5-4","232","16","LogR","0.934782608695652"
"housevotes","housevotes-5-4","232","16","KNN","0.934782608695652"
"housevotes","housevotes-5-4","232","16","DTree","0.543478260869565"
"housevotes","housevotes-5-4","232","16","SVM","0.934782608695652"
"housevotes","housevotes-5-4","232","16","MLP","0.91304347826087"
"housevotes","housevotes-5-4","232","16","LogR","0.91304347826087"
"housevotes","housevotes-5-4","232","16","KNN","0.978260869565217"
"housevotes","housevotes-5-4","232","16","DTree","0.608695652173913"
"housevotes","housevotes-5-4","232","16","SVM","0.891304347826087"
"housevotes","housevotes-5-4","232","16","MLP","0.891304347826087"
"housevotes","housevotes-5-4","232","16","LogR","0.826086956521739"
"housevotes","housevotes-5-4","232","16","KNN","0.847826086956522"
"housevotes","housevotes-5-4","232","16","DTree","0.543478260869565"
"housevotes","housevotes-5-4","232","16","SVM","1"
"housevotes","housevotes-5-4","232","16","MLP","1"
"housevotes","housevotes-5-4","232","16","LogR","1"
"housevotes","housevotes-5-4","232","16","KNN","1"
"housevotes","housevotes-5-4","232","16","DTree","0.608695652173913"
"housevotes","housevotes-5-4","232","16","SVM","0.956521739130435"
"housevotes","housevotes-5-4","232","16","MLP","0.978260869565217"
"housevotes","housevotes-5-4","232","16","LogR","0.978260869565217"
"housevotes","housevotes-5-4","232","16","KNN","0.934782608695652"
"housevotes","housevotes-5-4","232","16","DTree","0.58695652173913"
"housevotes","housevotes-5-4","232","16","SVM","0.978260869565217"
"housevotes","housevotes-5-4","232","16","MLP","0.978260869565217"
"housevotes","housevotes-5-4","232","16","LogR","0.978260869565217"
"housevotes","housevotes-5-4","232","16","KNN","0.91304347826087"
"housevotes","housevotes-5-4","232","16","DTree","0.608695652173913"
"housevotes","housevotes-5-4","232","16","SVM","0.891304347826087"
"housevotes","housevotes-5-4","232","16","MLP","0.891304347826087"
"housevotes","housevotes-5-4","232","16","LogR","0.891304347826087"
"housevotes","housevotes-5-4","232","16","KNN","0.891304347826087"
"housevotes","housevotes-5-4","232","16","DTree","0.58695652173913"
"housevotes","housevotes-5-4","232","16","SVM","0.91304347826087"
"housevotes","housevotes-5-4","232","16","MLP","1"
"housevotes","housevotes-5-4","232","16","LogR","0.978260869565217"
"housevotes","housevotes-5-4","232","16","KNN","0.804347826086957"
"housevotes","housevotes-5-4","232","16","DTree","0.58695652173913"
"housevotes","housevotes-5-4","232","16","SVM","0.956521739130435"
"housevotes","housevotes-5-4","232","16","MLP","0.978260869565217"
"housevotes","housevotes-5-4","232","16","LogR","0.978260869565217"
"housevotes","housevotes-5-4","232","16","KNN","0.934782608695652"
"housevotes","housevotes-5-4","232","16","DTree","0.521739130434783"
"housevotes","housevotes-5-5","232","16","SVM","0.904761904761905"
"housevotes","housevotes-5-5","232","16","MLP","0.928571428571429"
"housevotes","housevotes-5-5","232","16","LogR","0.880952380952381"
"housevotes","housevotes-5-5","232","16","KNN","0.880952380952381"
"housevotes","housevotes-5-5","232","16","DTree","0.523809523809524"
"housevotes","housevotes-5-5","232","16","SVM","0.928571428571429"
"housevotes","housevotes-5-5","232","16","MLP","0.904761904761905"
"housevotes","housevotes-5-5","232","16","LogR","0.952380952380952"
"housevotes","housevotes-5-5","232","16","KNN","0.904761904761905"
"housevotes","housevotes-5-5","232","16","DTree","0.5"
"housevotes","housevotes-5-5","232","16","SVM","0.80952380952381"
"housevotes","housevotes-5-5","232","16","MLP","0.857142857142857"
"housevotes","housevotes-5-5","232","16","LogR","0.880952380952381"
"housevotes","housevotes-5-5","232","16","KNN","0.80952380952381"
"housevotes","housevotes-5-5","232","16","DTree","0.404761904761905"
"housevotes","housevotes-5-5","232","16","SVM","0.928571428571429"
"housevotes","housevotes-5-5","232","16","MLP","0.928571428571429"
"housevotes","housevotes-5-5","232","16","LogR","0.928571428571429"
"housevotes","housevotes-5-5","232","16","KNN","0.928571428571429"
"housevotes","housevotes-5-5","232","16","DTree","0.571428571428571"
"housevotes","housevotes-5-5","232","16","SVM","0.952380952380952"
"housevotes","housevotes-5-5","232","16","MLP","0.976190476190476"
"housevotes","housevotes-5-5","232","16","LogR","0.880952380952381"
"housevotes","housevotes-5-5","232","16","KNN","0.976190476190476"
"housevotes","housevotes-5-5","232","16","DTree","0.523809523809524"
"housevotes","housevotes-5-5","232","16","SVM","0.952380952380952"
"housevotes","housevotes-5-5","232","16","MLP","0.952380952380952"
"housevotes","housevotes-5-5","232","16","LogR","0.904761904761905"
"housevotes","housevotes-5-5","232","16","KNN","0.952380952380952"
"housevotes","housevotes-5-5","232","16","DTree","0.476190476190476"
"housevotes","housevotes-5-5","232","16","SVM","0.904761904761905"
"housevotes","housevotes-5-5","232","16","MLP","0.904761904761905"
"housevotes","housevotes-5-5","232","16","LogR","0.857142857142857"
"housevotes","housevotes-5-5","232","16","KNN","0.857142857142857"
"housevotes","housevotes-5-5","232","16","DTree","0.5"
"housevotes","housevotes-5-5","232","16","SVM","0.857142857142857"
"housevotes","housevotes-5-5","232","16","MLP","0.880952380952381"
"housevotes","housevotes-5-5","232","16","LogR","0.857142857142857"
"housevotes","housevotes-5-5","232","16","KNN","0.904761904761905"
"housevotes","housevotes-5-5","232","16","DTree","0.404761904761905"
"housevotes","housevotes-5-5","232","16","SVM","0.880952380952381"
"housevotes","housevotes-5-5","232","16","MLP","0.857142857142857"
"housevotes","housevotes-5-5","232","16","LogR","0.857142857142857"
"housevotes","housevotes-5-5","232","16","KNN","0.857142857142857"
"housevotes","housevotes-5-5","232","16","DTree","0.571428571428571"
"housevotes","housevotes-5-5","232","16","SVM","0.880952380952381"
"housevotes","housevotes-5-5","232","16","MLP","0.904761904761905"
"housevotes","housevotes-5-5","232","16","LogR","0.904761904761905"
"housevotes","housevotes-5-5","232","16","KNN","0.833333333333333"
"housevotes","housevotes-5-5","232","16","DTree","0.595238095238095"
"housevotes","housevotes","232","16","SVM","0.982758620689655"
"housevotes","housevotes","232","16","MLP","0.948275862068966"
"housevotes","housevotes","232","16","LogR","0.931034482758621"
"housevotes","housevotes","232","16","KNN","0.982758620689655"
"housevotes","housevotes","232","16","DTree","0.53448275862069"
"housevotes","housevotes","232","16","SVM","0.964912280701754"
"housevotes","housevotes","232","16","MLP","1"
"housevotes","housevotes","232","16","LogR","1"
"housevotes","housevotes","232","16","KNN","0.894736842105263"
"housevotes","housevotes","232","16","DTree","0.543859649122807"
"housevotes","housevotes","232","16","SVM","0.929824561403509"
"housevotes","housevotes","232","16","MLP","1"
"housevotes","housevotes","232","16","LogR","1"
"housevotes","housevotes","232","16","KNN","0.964912280701754"
"housevotes","housevotes","232","16","DTree","0.543859649122807"
"housevotes","housevotes","232","16","SVM","0.912280701754386"
"housevotes","housevotes","232","16","MLP","0.929824561403509"
"housevotes","housevotes","232","16","LogR","0.929824561403509"
"housevotes","housevotes","232","16","KNN","0.894736842105263"
"housevotes","housevotes","232","16","DTree","0.543859649122807"
"housevotes","housevotes","232","16","SVM","0.964912280701754"
"housevotes","housevotes","232","16","MLP","0.982456140350877"
"housevotes","housevotes","232","16","LogR","0.964912280701754"
"housevotes","housevotes","232","16","KNN","0.964912280701754"
"housevotes","housevotes","232","16","DTree","0.508771929824561"
"housevotes","housevotes","232","16","SVM","0.964912280701754"
"housevotes","housevotes","232","16","MLP","0.964912280701754"
"housevotes","housevotes","232","16","LogR","0.947368421052632"
"housevotes","housevotes","232","16","KNN","0.964912280701754"
"housevotes","housevotes","232","16","DTree","0.56140350877193"
"housevotes","housevotes","232","16","SVM","0.912280701754386"
"housevotes","housevotes","232","16","MLP","0.964912280701754"
"housevotes","housevotes","232","16","LogR","0.947368421052632"
"housevotes","housevotes","232","16","KNN","0.894736842105263"
"housevotes","housevotes","232","16","DTree","0.596491228070175"
"housevotes","housevotes","232","16","SVM","0.964912280701754"
"housevotes","housevotes","232","16","MLP","1"
"housevotes","housevotes","232","16","LogR","1"
"housevotes","housevotes","232","16","KNN","0.947368421052632"
"housevotes","housevotes","232","16","DTree","0.508771929824561"
"housevotes","housevotes","232","16","SVM","0.929824561403509"
"housevotes","housevotes","232","16","MLP","0.964912280701754"
"housevotes","housevotes","232","16","LogR","0.964912280701754"
"housevotes","housevotes","232","16","KNN","0.929824561403509"
"housevotes","housevotes","232","16","DTree","0.526315789473684"
"housevotes","housevotes","232","16","SVM","0.947368421052632"
"housevotes","housevotes","232","16","MLP","0.982456140350877"
"housevotes","housevotes","232","16","LogR","0.964912280701754"
"housevotes","housevotes","232","16","KNN","0.929824561403509"
"housevotes","housevotes","232","16","DTree","0.543859649122807"
"housevotes","housevotes","232","16","SVM","0.964912280701754"
"housevotes","housevotes","232","16","MLP","0.947368421052632"
"housevotes","housevotes","232","16","LogR","0.964912280701754"
"housevotes","housevotes","232","16","KNN","0.912280701754386"
"housevotes","housevotes","232","16","DTree","0.578947368421053"
"housevotes","housevotes","232","16","SVM","0.964912280701754"
"housevotes","housevotes","232","16","MLP","1"
"housevotes","housevotes","232","16","LogR","0.982456140350877"
"housevotes","housevotes","232","16","KNN","0.947368421052632"
"housevotes","housevotes","232","16","DTree","0.508771929824561"
"housevotes","housevotes","232","16","SVM","0.964912280701754"
"housevotes","housevotes","232","16","MLP","0.982456140350877"
"housevotes","housevotes","232","16","LogR","0.964912280701754"
"housevotes","housevotes","232","16","KNN","0.912280701754386"
"housevotes","housevotes","232","16","DTree","0.56140350877193"
"housevotes","housevotes","232","16","SVM","0.896551724137931"
"housevotes","housevotes","232","16","MLP","0.931034482758621"
"housevotes","housevotes","232","16","LogR","0.844827586206897"
"housevotes","housevotes","232","16","KNN","0.862068965517241"
"housevotes","housevotes","232","16","DTree","0.551724137931034"
"housevotes","housevotes","232","16","SVM","0.964912280701754"
"housevotes","housevotes","232","16","MLP","0.982456140350877"
"housevotes","housevotes","232","16","LogR","0.964912280701754"
"housevotes","housevotes","232","16","KNN","0.912280701754386"
"housevotes","housevotes","232","16","DTree","0.526315789473684"
"housevotes","housevotes","232","16","SVM","0.982456140350877"
"housevotes","housevotes","232","16","MLP","0.982456140350877"
"housevotes","housevotes","232","16","LogR","0.982456140350877"
"housevotes","housevotes","232","16","KNN","0.929824561403509"
"housevotes","housevotes","232","16","DTree","0.56140350877193"
"housevotes","housevotes","232","16","SVM","0.964912280701754"
"housevotes","housevotes","232","16","MLP","1"
"housevotes","housevotes","232","16","LogR","1"
"housevotes","housevotes","232","16","KNN","0.964912280701754"
"housevotes","housevotes","232","16","DTree","0.578947368421053"
"housevotes","housevotes","232","16","SVM","0.929824561403509"
"housevotes","housevotes","232","16","MLP","1"
"housevotes","housevotes","232","16","LogR","1"
"housevotes","housevotes","232","16","KNN","0.912280701754386"
"housevotes","housevotes","232","16","DTree","0.526315789473684"
"housevotes","housevotes","232","16","SVM","0.982456140350877"
"housevotes","housevotes","232","16","MLP","0.929824561403509"
"housevotes","housevotes","232","16","LogR","0.859649122807018"
"housevotes","housevotes","232","16","KNN","0.947368421052632"
"housevotes","housevotes","232","16","DTree","0.543859649122807"
"housevotes","housevotes","232","16","SVM","0.947368421052632"
"housevotes","housevotes","232","16","MLP","0.929824561403509"
"housevotes","housevotes","232","16","LogR","0.964912280701754"
"housevotes","housevotes","232","16","KNN","0.912280701754386"
"housevotes","housevotes","232","16","DTree","0.56140350877193"
"housevotes","housevotes","232","16","SVM","0.982456140350877"
"housevotes","housevotes","232","16","MLP","1"
"housevotes","housevotes","232","16","LogR","1"
"housevotes","housevotes","232","16","KNN","0.929824561403509"
"housevotes","housevotes","232","16","DTree","0.508771929824561"
"housevotes","housevotes","232","16","SVM","0.947368421052632"
"housevotes","housevotes","232","16","MLP","0.964912280701754"
"housevotes","housevotes","232","16","LogR","0.947368421052632"
"housevotes","housevotes","232","16","KNN","0.912280701754386"
"housevotes","housevotes","232","16","DTree","0.508771929824561"
"housevotes","housevotes","232","16","SVM","0.947368421052632"
"housevotes","housevotes","232","16","MLP","0.982456140350877"
"housevotes","housevotes","232","16","LogR","1"
"housevotes","housevotes","232","16","KNN","0.894736842105263"
"housevotes","housevotes","232","16","DTree","0.543859649122807"
"housevotes","housevotes","232","16","SVM","0.964912280701754"
"housevotes","housevotes","232","16","MLP","0.964912280701754"
"housevotes","housevotes","232","16","LogR","0.964912280701754"
"housevotes","housevotes","232","16","KNN","0.947368421052632"
"housevotes","housevotes","232","16","DTree","0.508771929824561"
"housevotes","housevotes","232","16","SVM","0.96551724137931"
"housevotes","housevotes","232","16","MLP","0.982758620689655"
"housevotes","housevotes","232","16","LogR","0.982758620689655"
"housevotes","housevotes","232","16","KNN","0.948275862068966"
"housevotes","housevotes","232","16","DTree","0.53448275862069"
"housevotes","housevotes","232","16","SVM","0.982758620689655"
"housevotes","housevotes","232","16","MLP","0.982758620689655"
"housevotes","housevotes","232","16","LogR","0.96551724137931"
"housevotes","housevotes","232","16","KNN","0.931034482758621"
"housevotes","housevotes","232","16","DTree","0.586206896551724"
"housevotes","housevotes","232","16","SVM","1"
"housevotes","housevotes","232","16","MLP","0.947368421052632"
"housevotes","housevotes","232","16","LogR","0.929824561403509"
"housevotes","housevotes","232","16","KNN","0.912280701754386"
"housevotes","housevotes","232","16","DTree","0.526315789473684"
"housevotes","housevotes","232","16","SVM","0.947368421052632"
"housevotes","housevotes","232","16","MLP","0.964912280701754"
"housevotes","housevotes","232","16","LogR","0.982456140350877"
"housevotes","housevotes","232","16","KNN","0.947368421052632"
"housevotes","housevotes","232","16","DTree","0.578947368421053"
"housevotes","housevotes","232","16","SVM","0.982456140350877"
"housevotes","housevotes","232","16","MLP","0.982456140350877"
"housevotes","housevotes","232","16","LogR","0.964912280701754"
"housevotes","housevotes","232","16","KNN","0.964912280701754"
"housevotes","housevotes","232","16","DTree","0.508771929824561"
"housevotes","housevotes","232","16","SVM","0.982456140350877"
"housevotes","housevotes","232","16","MLP","1"
"housevotes","housevotes","232","16","LogR","1"
"housevotes","housevotes","232","16","KNN","0.929824561403509"
"housevotes","housevotes","232","16","DTree","0.543859649122807"
"housevotes","housevotes","232","16","SVM","0.896551724137931"
"housevotes","housevotes","232","16","MLP","0.96551724137931"
"housevotes","housevotes","232","16","LogR","0.982758620689655"
"housevotes","housevotes","232","16","KNN","0.862068965517241"
"housevotes","housevotes","232","16","DTree","0.568965517241379"
"housevotes","housevotes","232","16","SVM","0.947368421052632"
"housevotes","housevotes","232","16","MLP","0.964912280701754"
"housevotes","housevotes","232","16","LogR","0.982456140350877"
"housevotes","housevotes","232","16","KNN","0.947368421052632"
"housevotes","housevotes","232","16","DTree","0.508771929824561"
"housevotes","housevotes","232","16","SVM","0.982456140350877"
"housevotes","housevotes","232","16","MLP","0.964912280701754"
"housevotes","housevotes","232","16","LogR","0.947368421052632"
"housevotes","housevotes","232","16","KNN","0.964912280701754"
"housevotes","housevotes","232","16","DTree","0.543859649122807"
"housevotes","housevotes","232","16","SVM","0.894736842105263"
"housevotes","housevotes","232","16","MLP","1"
"housevotes","housevotes","232","16","LogR","0.964912280701754"
"housevotes","housevotes","232","16","KNN","0.912280701754386"
"housevotes","housevotes","232","16","DTree","0.56140350877193"
"housevotes","housevotes","232","16","SVM","0.964912280701754"
"housevotes","housevotes","232","16","MLP","0.964912280701754"
"housevotes","housevotes","232","16","LogR","0.964912280701754"
"housevotes","housevotes","232","16","KNN","0.947368421052632"
"housevotes","housevotes","232","16","DTree","0.543859649122807"
"housevotes","housevotes","232","16","SVM","0.929824561403509"
"housevotes","housevotes","232","16","MLP","0.964912280701754"
"housevotes","housevotes","232","16","LogR","0.964912280701754"
"housevotes","housevotes","232","16","KNN","0.929824561403509"
"housevotes","housevotes","232","16","DTree","0.543859649122807"
"housevotes","housevotes","232","16","SVM","0.964912280701754"
"housevotes","housevotes","232","16","MLP","1"
"housevotes","housevotes","232","16","LogR","0.964912280701754"
"housevotes","housevotes","232","16","KNN","0.964912280701754"
"housevotes","housevotes","232","16","DTree","0.526315789473684"
"housevotes","housevotes","232","16","SVM","0.964912280701754"
"housevotes","housevotes","232","16","MLP","0.982456140350877"
"housevotes","housevotes","232","16","LogR","0.964912280701754"
"housevotes","housevotes","232","16","KNN","0.947368421052632"
"housevotes","housevotes","232","16","DTree","0.56140350877193"
"housevotes","housevotes","232","16","SVM","0.912280701754386"
"housevotes","housevotes","232","16","MLP","0.929824561403509"
"housevotes","housevotes","232","16","LogR","0.947368421052632"
"housevotes","housevotes","232","16","KNN","0.87719298245614"
"housevotes","housevotes","232","16","DTree","0.508771929824561"
"housevotes","housevotes","232","16","SVM","0.964912280701754"
"housevotes","housevotes","232","16","MLP","0.964912280701754"
"housevotes","housevotes","232","16","LogR","0.947368421052632"
"housevotes","housevotes","232","16","KNN","0.947368421052632"
"housevotes","housevotes","232","16","DTree","0.508771929824561"
"housevotes","housevotes","232","16","SVM","0.982758620689655"
"housevotes","housevotes","232","16","MLP","0.96551724137931"
"housevotes","housevotes","232","16","LogR","0.948275862068966"
"housevotes","housevotes","232","16","KNN","0.982758620689655"
"housevotes","housevotes","232","16","DTree","0.517241379310345"
"housevotes","housevotes","232","16","SVM","1"
"housevotes","housevotes","232","16","MLP","1"
"housevotes","housevotes","232","16","LogR","1"
"housevotes","housevotes","232","16","KNN","0.947368421052632"
"housevotes","housevotes","232","16","DTree","0.578947368421053"
"housevotes","housevotes","232","16","SVM","0.931034482758621"
"housevotes","housevotes","232","16","MLP","0.948275862068966"
"housevotes","housevotes","232","16","LogR","0.948275862068966"
"housevotes","housevotes","232","16","KNN","0.844827586206897"
"housevotes","housevotes","232","16","DTree","0.53448275862069"
"housevotes","housevotes","232","16","SVM","0.964912280701754"
"housevotes","housevotes","232","16","MLP","0.982456140350877"
"housevotes","housevotes","232","16","LogR","0.982456140350877"
"housevotes","housevotes","232","16","KNN","0.929824561403509"
"housevotes","housevotes","232","16","DTree","0.526315789473684"
"housevotes","housevotes","232","16","SVM","0.964912280701754"
"housevotes","housevotes","232","16","MLP","0.964912280701754"
"housevotes","housevotes","232","16","LogR","0.929824561403509"
"housevotes","housevotes","232","16","KNN","0.929824561403509"
"housevotes","housevotes","232","16","DTree","0.526315789473684"
"housevotes","housevotes","232","16","SVM","0.929824561403509"
"housevotes","housevotes","232","16","MLP","0.982456140350877"
"housevotes","housevotes","232","16","LogR","1"
"housevotes","housevotes","232","16","KNN","0.912280701754386"
"housevotes","housevotes","232","16","DTree","0.596491228070175"
"housevotes","housevotes","232","16","SVM","0.982456140350877"
"housevotes","housevotes","232","16","MLP","1"
"housevotes","housevotes","232","16","LogR","1"
"housevotes","housevotes","232","16","KNN","0.947368421052632"
"housevotes","housevotes","232","16","DTree","0.56140350877193"
"housevotes","housevotes","232","16","SVM","0.894736842105263"
"housevotes","housevotes","232","16","MLP","0.982456140350877"
"housevotes","housevotes","232","16","LogR","0.964912280701754"
"housevotes","housevotes","232","16","KNN","0.859649122807018"
"housevotes","housevotes","232","16","DTree","0.596491228070175"
"housevotes","housevotes","232","16","SVM","0.964912280701754"
"housevotes","housevotes","232","16","MLP","0.964912280701754"
"housevotes","housevotes","232","16","LogR","0.947368421052632"
"housevotes","housevotes","232","16","KNN","0.929824561403509"
"housevotes","housevotes","232","16","DTree","0.526315789473684"
"housevotes","housevotes","232","16","SVM","0.964912280701754"
"housevotes","housevotes","232","16","MLP","0.982456140350877"
"housevotes","housevotes","232","16","LogR","0.947368421052632"
"housevotes","housevotes","232","16","KNN","0.947368421052632"
"housevotes","housevotes","232","16","DTree","0.508771929824561"
