"Age", "Sex", "ChestPainType", "RestBloodPressure", "SerumCholestoral", "FastingBloodSugar", "ResElectrocardiographic", "MaxHeartRate", "ExerciseInduced", "Oldpeak", "Slope", "MajorVessels", "Thal", "Class"
"64.0", "1", "4", "128.0", "263.0", "0", "0", "105.0", "1", "2.0", "2", "1", "7.0", "1"
"59.0", "1", "4", "135.0", "234.0", "0", "0", "161.0", "0", "5.0", "2", "0", "7.0", "1"
"57.0", "0", "4", "128.0", "303.0", "0", "2", "159.0", "0", "0.0", "1", "1", "3.0", "1"
"48.0", "1", "2", "130.0", "245.0", "0", "2", "180.0", "0", "2.0", "2", "0", "3.0", "1"
"43.0", "1", "4", "115.0", "303.0", "0", "0", "181.0", "0", "12.0", "2", "0", "3.0", "1"
"54.0", "0", "2", "132.0", "288.0", "1", "2", "159.0", "1", "0.0", "1", "1", "3.0", "1"
"48.0", "0", "3", "130.0", "275.0", "0", "0", "139.0", "0", "2.0", "1", "0", "3.0", "1"
"66.0", "1", "4", "160.0", "228.0", "0", "2", "138.0", "0", "23.0", "1", "0", "6.0", "1"
"59.0", "1", "4", "170.0", "326.0", "0", "2", "140.0", "1", "34.0", "3", "0", "7.0", "2"
"48.0", "1", "4", "130.0", "256.0", "1", "2", "150.0", "1", "0.0", "1", "2", "7.0", "2"
"59.0", "1", "1", "160.0", "273.0", "0", "2", "125.0", "0", "0.0", "1", "0", "3.0", "2"
"46.0", "1", "2", "101.0", "197.0", "1", "0", "156.0", "0", "0.0", "1", "0", "7.0", "1"
"59.0", "1", "3", "126.0", "218.0", "1", "0", "134.0", "0", "22.0", "2", "1", "6.0", "2"
"49.0", "1", "3", "118.0", "149.0", "0", "2", "126.0", "0", "8.0", "1", "3", "3.0", "2"
"52.0", "1", "2", "128.0", "205.0", "1", "0", "184.0", "0", "0.0", "1", "0", "3.0", "1"
"63.0", "0", "2", "140.0", "195.0", "0", "0", "179.0", "0", "0.0", "1", "2", "3.0", "1"
"61.0", "1", "4", "138.0", "166.0", "0", "2", "125.0", "1", "36.0", "2", "1", "3.0", "2"
"57.0", "1", "3", "150.0", "126.0", "1", "0", "173.0", "0", "2.0", "1", "1", "7.0", "1"
"51.0", "0", "4", "130.0", "305.0", "0", "0", "142.0", "1", "12.0", "2", "0", "7.0", "2"
"60.0", "0", "1", "150.0", "240.0", "0", "0", "171.0", "0", "9.0", "1", "0", "3.0", "1"
"57.0", "1", "4", "150.0", "276.0", "0", "2", "112.0", "1", "6.0", "2", "1", "6.0", "2"
"39.0", "0", "3", "94.0", "199.0", "0", "0", "179.0", "0", "0.0", "1", "0", "3.0", "1"
"42.0", "0", "3", "120.0", "209.0", "0", "0", "173.0", "0", "0.0", "2", "0", "3.0", "1"
"51.0", "1", "3", "100.0", "222.0", "0", "0", "143.0", "1", "12.0", "2", "0", "3.0", "1"
"60.0", "0", "4", "158.0", "305.0", "0", "2", "161.0", "0", "0.0", "1", "0", "3.0", "2"
"56.0", "0", "4", "200.0", "288.0", "1", "2", "133.0", "1", "4.0", "3", "2", "7.0", "2"
"57.0", "1", "4", "152.0", "274.0", "0", "0", "88.0", "1", "12.0", "2", "1", "7.0", "2"
"66.0", "1", "4", "112.0", "212.0", "0", "2", "132.0", "1", "1.0", "1", "1", "3.0", "2"
"42.0", "1", "4", "140.0", "226.0", "0", "0", "178.0", "0", "0.0", "1", "0", "3.0", "1"
"53.0", "1", "4", "123.0", "282.0", "0", "0", "95.0", "1", "2.0", "2", "2", "7.0", "2"
"50.0", "0", "3", "120.0", "219.0", "0", "0", "158.0", "0", "16.0", "2", "0", "3.0", "1"
"64.0", "0", "4", "130.0", "303.0", "0", "0", "122.0", "0", "2.0", "2", "2", "3.0", "1"
"62.0", "0", "4", "150.0", "244.0", "0", "0", "154.0", "1", "14.0", "2", "0", "3.0", "2"
"50.0", "0", "4", "110.0", "254.0", "0", "2", "159.0", "0", "0.0", "1", "0", "3.0", "1"
"53.0", "1", "3", "130.0", "197.0", "1", "2", "152.0", "0", "12.0", "3", "0", "3.0", "1"
"46.0", "1", "3", "150.0", "231.0", "0", "0", "147.0", "0", "36.0", "2", "0", "3.0", "2"
"50.0", "1", "3", "129.0", "196.0", "0", "0", "163.0", "0", "0.0", "1", "0", "3.0", "1"
"42.0", "1", "3", "120.0", "240.0", "1", "0", "194.0", "0", "8.0", "3", "0", "7.0", "1"
"56.0", "0", "4", "134.0", "409.0", "0", "2", "150.0", "1", "19.0", "2", "2", "7.0", "2"
"43.0", "1", "3", "130.0", "315.0", "0", "0", "162.0", "0", "19.0", "1", "1", "3.0", "1"
"54.0", "1", "4", "140.0", "239.0", "0", "0", "160.0", "0", "12.0", "1", "0", "3.0", "1"
"68.0", "1", "3", "118.0", "277.0", "0", "0", "151.0", "0", "1.0", "1", "1", "7.0", "1"
"59.0", "1", "1", "170.0", "288.0", "0", "2", "159.0", "0", "2.0", "2", "0", "7.0", "2"
"43.0", "0", "3", "122.0", "213.0", "0", "0", "165.0", "0", "2.0", "2", "0", "3.0", "1"
"41.0", "0", "2", "130.0", "204.0", "0", "2", "172.0", "0", "14.0", "1", "0", "3.0", "1"
"51.0", "1", "3", "94.0", "227.0", "0", "0", "154.0", "1", "0.0", "1", "1", "7.0", "1"
"62.0", "0", "3", "130.0", "263.0", "0", "0", "97.0", "0", "12.0", "2", "1", "7.0", "2"
"39.0", "1", "4", "118.0", "219.0", "0", "0", "140.0", "0", "12.0", "2", "0", "7.0", "2"
"53.0", "0", "4", "138.0", "234.0", "0", "2", "160.0", "0", "0.0", "1", "0", "3.0", "1"
"68.0", "1", "3", "180.0", "274.0", "1", "2", "150.0", "1", "16.0", "2", "0", "7.0", "2"
"44.0", "1", "4", "112.0", "290.0", "0", "2", "153.0", "0", "0.0", "1", "1", "3.0", "2"
"58.0", "1", "2", "120.0", "284.0", "0", "2", "160.0", "0", "18.0", "2", "0", "3.0", "2"
"48.0", "1", "2", "110.0", "229.0", "0", "0", "168.0", "0", "1.0", "3", "0", "7.0", "2"
"67.0", "1", "4", "160.0", "286.0", "0", "2", "108.0", "1", "15.0", "2", "3", "3.0", "2"
